


-------------------------------------------
ERROR
09/03/2017 08:28:01 a. m.
Version: 1.0.4.11
-------------------------------------------
E0088 :E0088. call_WS - webService_services. 
Esta conectado a una red\nEsta conectado a internet\nSe excedió el tiempo de espera de la operación


-------------------------------------------
ERROR
09/03/2017 08:29:01 a. m.
Version: 1.0.4.11
-------------------------------------------
E0088 :E0088. call_WS - webService_services. 
Esta conectado a una red\nEsta conectado a internet\nSystem.Web.Services.Protocols.SoapException: Server was unable to process request. ---> System.NullReferenceException: Object reference not set to an instance of an object.
   at ws_pl_test.hotel_manager.procesa(XmlDocument RQ) in C:\Users\WM\Source\Workspaces\WS\ws_pl_test\Rubros\Hotel\hotel_manager.vb:line 552
   at ws_pl_test.adminRubros.rubros(XmlDocument docRQ) in C:\Users\WM\Source\Workspaces\WS\ws_pl_test\adminRubros.vb:line 14
   at ws_pl_test.Service1.ejecuta(String xmlRQ) in C:\Users\WM\Source\Workspaces\WS\ws_pl_test\Services.asmx.vb:line 48
   at ws_pl_test.Service1.SubmitXML(String xmlRQ) in C:\Users\WM\Source\Workspaces\WS\ws_pl_test\Services.asmx.vb:line 23
   --- End of inner exception stack trace ---


-------------------------------------------
ERROR
09/03/2017 08:30:41 a. m.
Version: 1.0.4.11
-------------------------------------------
E0088 :E0088. call_WS - webService_services. 
Esta conectado a una red\nEsta conectado a internet\nSystem.Web.Services.Protocols.SoapException: Server was unable to process request. ---> System.NullReferenceException: Object reference not set to an instance of an object.
   at ws_pl_test.hotel_manager.procesa(XmlDocument RQ) in C:\Users\WM\Source\Workspaces\WS\ws_pl_test\Rubros\Hotel\hotel_manager.vb:line 552
   at ws_pl_test.adminRubros.rubros(XmlDocument docRQ) in C:\Users\WM\Source\Workspaces\WS\ws_pl_test\adminRubros.vb:line 14
   at ws_pl_test.Service1.ejecuta(String xmlRQ) in C:\Users\WM\Source\Workspaces\WS\ws_pl_test\Services.asmx.vb:line 48
   at ws_pl_test.Service1.SubmitXML(String xmlRQ) in C:\Users\WM\Source\Workspaces\WS\ws_pl_test\Services.asmx.vb:line 23
   --- End of inner exception stack trace ---


-------------------------------------------
ERROR
09/03/2017 09:41:43 a. m.
Version: 1.0.4.11
-------------------------------------------
E0095 :E0095. obten_updates - login. 
No se puede resolver el nombre remoto: 'crs.univisit.com'


-------------------------------------------
ERROR
09/03/2017 09:41:50 a. m.
Version: 1.0.4.11
-------------------------------------------
E0080 :E0080. UserLogin - webService_passport. Ocurrió un error en la conexión con el servidor
No se puede resolver el nombre remoto: 'crs.univisit.com'


-------------------------------------------
ERROR
09/03/2017 09:42:02 a. m.
Version: 1.0.4.11
-------------------------------------------
E0080 :E0080. UserLogin - webService_passport. Ocurrió un error en la conexión con el servidor
No se puede resolver el nombre remoto: 'crs.univisit.com'


-------------------------------------------
ERROR
09/03/2017 10:31:23 a. m.
Version: 1.0.4.11
-------------------------------------------
E0088 :E0088. call_WS - webService_services. 
Esta conectado a una red\nEsta conectado a internet\nSe excedió el tiempo de espera de la operación


-------------------------------------------
ERROR
09/03/2017 10:36:51 a. m.
Version: 1.0.4.11
-------------------------------------------
E0088 :E0088. call_WS - webService_services. 
Esta conectado a una red\nEsta conectado a internet\nSystem.Web.Services.Protocols.SoapException: Server was unable to process request. ---> System.NullReferenceException: Object reference not set to an instance of an object.
   at ws_pl_test.hotel_manager.procesa(XmlDocument RQ) in C:\Users\WM\Source\Workspaces\WS\ws_pl_test\Rubros\Hotel\hotel_manager.vb:line 552
   at ws_pl_test.adminRubros.rubros(XmlDocument docRQ) in C:\Users\WM\Source\Workspaces\WS\ws_pl_test\adminRubros.vb:line 14
   at ws_pl_test.Service1.ejecuta(String xmlRQ) in C:\Users\WM\Source\Workspaces\WS\ws_pl_test\Services.asmx.vb:line 48
   at ws_pl_test.Service1.SubmitXML(String xmlRQ) in C:\Users\WM\Source\Workspaces\WS\ws_pl_test\Services.asmx.vb:line 23
   --- End of inner exception stack trace ---


-------------------------------------------
ERROR
09/03/2017 11:05:20 a. m.
Version: 1.0.4.11
-------------------------------------------
E0088 :E0088. call_WS - webService_services. 
Esta conectado a una red\nEsta conectado a internet\nSe excedió el tiempo de espera de la operación