


-------------------------------------------
ERROR
16/03/2017 08:09:46 a. m.
Version: 1.0.4.11
-------------------------------------------
E0088 :E0088. call_WS - webService_services. 
Esta conectado a una red\nEsta conectado a internet\nSystem.Web.Services.Protocols.SoapException: Server was unable to process request. ---> System.NullReferenceException: Object reference not set to an instance of an object.
   at ws_pl_test.passport_manager.procesa(XmlDocument RQ) in C:\Users\WM\Source\Workspaces\WS\ws_pl_test\Rubros\Passport\passport_manager.vb:line 16
   at ws_pl_test.adminRubros.rubros(XmlDocument docRQ) in C:\Users\WM\Source\Workspaces\WS\ws_pl_test\adminRubros.vb:line 33
   at ws_pl_test.Service1.ejecuta(String xmlRQ) in C:\Users\WM\Source\Workspaces\WS\ws_pl_test\Services.asmx.vb:line 48
   at ws_pl_test.Service1.SubmitXML(String xmlRQ) in C:\Users\WM\Source\Workspaces\WS\ws_pl_test\Services.asmx.vb:line 23
   --- End of inner exception stack trace ---


-------------------------------------------
ERROR
16/03/2017 08:09:46 a. m.
Version: 1.0.4.11
-------------------------------------------
E0104 :E0104. load_data - reservaciones. 
REVISAR_01: ds is nothing - 


-------------------------------------------
ERROR
16/03/2017 08:14:32 a. m.
Version: 1.0.4.11
-------------------------------------------
E0088 :E0088. call_WS - webService_services. 
Esta conectado a una red\nEsta conectado a internet\nSystem.Web.Services.Protocols.SoapException: Server was unable to process request. ---> System.NullReferenceException: Object reference not set to an instance of an object.
   at ws_pl_test.passport_manager.procesa(XmlDocument RQ) in C:\Users\WM\Source\Workspaces\WS\ws_pl_test\Rubros\Passport\passport_manager.vb:line 16
   at ws_pl_test.adminRubros.rubros(XmlDocument docRQ) in C:\Users\WM\Source\Workspaces\WS\ws_pl_test\adminRubros.vb:line 33
   at ws_pl_test.Service1.ejecuta(String xmlRQ) in C:\Users\WM\Source\Workspaces\WS\ws_pl_test\Services.asmx.vb:line 48
   at ws_pl_test.Service1.SubmitXML(String xmlRQ) in C:\Users\WM\Source\Workspaces\WS\ws_pl_test\Services.asmx.vb:line 23
   --- End of inner exception stack trace ---


-------------------------------------------
ERROR
16/03/2017 08:14:32 a. m.
Version: 1.0.4.11
-------------------------------------------
E0104 :E0104. load_data - reservaciones. 
REVISAR_01: ds is nothing - 


-------------------------------------------
ERROR
16/03/2017 08:54:08 a. m.
Version: 1.0.4.11
-------------------------------------------
E0110 :E0110. load_data - reservaciones. 
Subproceso anulado. /////////////////////// en el punto: 


-------------------------------------------
ERROR
16/03/2017 08:54:28 a. m.
Version: 1.0.4.11
-------------------------------------------
E0088 :E0088. call_WS - webService_services. 
Esta conectado a una red\nEsta conectado a internet\nSe excedió el tiempo de espera de la operación


-------------------------------------------
ERROR
16/03/2017 08:54:28 a. m.
Version: 1.0.4.11
-------------------------------------------
E0104 :E0104. load_data - reservaciones. 
REVISAR_01: ds is nothing - 


-------------------------------------------
ERROR
16/03/2017 09:35:01 a. m.
Version: 1.0.4.11
-------------------------------------------
E0088 :E0088. call_WS - webService_services. 
Esta conectado a una red\nEsta conectado a internet\nSystem.Web.Services.Protocols.SoapException: Server was unable to process request. ---> System.NullReferenceException: Object reference not set to an instance of an object.
   at ws_pl_test.hotel_manager.procesa(XmlDocument RQ) in C:\Users\WM\Source\Workspaces\WS\ws_pl_test\Rubros\Hotel\hotel_manager.vb:line 561
   at ws_pl_test.adminRubros.rubros(XmlDocument docRQ) in C:\Users\WM\Source\Workspaces\WS\ws_pl_test\adminRubros.vb:line 14
   at ws_pl_test.Service1.ejecuta(String xmlRQ) in C:\Users\WM\Source\Workspaces\WS\ws_pl_test\Services.asmx.vb:line 48
   at ws_pl_test.Service1.SubmitXML(String xmlRQ) in C:\Users\WM\Source\Workspaces\WS\ws_pl_test\Services.asmx.vb:line 23
   --- End of inner exception stack trace ---


-------------------------------------------
ERROR
16/03/2017 09:56:18 a. m.
Version: 1.0.4.11
-------------------------------------------
E0088 :E0088. call_WS - webService_services. 
Esta conectado a una red\nEsta conectado a internet\nSystem.Web.Services.Protocols.SoapException: Server was unable to process request. ---> System.NullReferenceException: Object reference not set to an instance of an object.
   at ws_pl_test.hotel_manager.procesa(XmlDocument RQ) in C:\Users\WM\Source\Workspaces\WS\ws_pl_test\Rubros\Hotel\hotel_manager.vb:line 561
   at ws_pl_test.adminRubros.rubros(XmlDocument docRQ) in C:\Users\WM\Source\Workspaces\WS\ws_pl_test\adminRubros.vb:line 14
   at ws_pl_test.Service1.ejecuta(String xmlRQ) in C:\Users\WM\Source\Workspaces\WS\ws_pl_test\Services.asmx.vb:line 48
   at ws_pl_test.Service1.SubmitXML(String xmlRQ) in C:\Users\WM\Source\Workspaces\WS\ws_pl_test\Services.asmx.vb:line 23
   --- End of inner exception stack trace ---


-------------------------------------------
ERROR
16/03/2017 09:56:25 a. m.
Version: 1.0.4.11
-------------------------------------------
E0088 :E0088. call_WS - webService_services. 
Esta conectado a una red\nEsta conectado a internet\nSystem.Web.Services.Protocols.SoapException: Server was unable to process request. ---> System.IndexOutOfRangeException: There is no row at position 0.
   at System.Data.RBTree`1.GetNodeByIndex(Int32 userIndex)
   at System.Data.RBTree`1.get_Item(Int32 index)
   at System.Data.DataRowCollection.get_Item(Int32 index)
   at ws_pl_test.Hotel_Display_RS.ReservationDataTable.get_Item(Int32 index) in C:\Users\WM\Source\Workspaces\WS\ws_pl_test\Rubros\Hotel\DataSets\Hotel_Display_RS.Designer.vb:line 2186
   at ws_pl_test.hotel_manager.procesa(XmlDocument RQ) in C:\Users\WM\Source\Workspaces\WS\ws_pl_test\Rubros\Hotel\hotel_manager.vb:line 413
   at ws_pl_test.adminRubros.rubros(XmlDocument docRQ) in C:\Users\WM\Source\Workspaces\WS\ws_pl_test\adminRubros.vb:line 14
   at ws_pl_test.Service1.ejecuta(String xmlRQ) in C:\Users\WM\Source\Workspaces\WS\ws_pl_test\Services.asmx.vb:line 48
   at ws_pl_test.Service1.SubmitXML(String xmlRQ) in C:\Users\WM\Source\Workspaces\WS\ws_pl_test\Services.asmx.vb:line 23
   --- End of inner exception stack trace ---


-------------------------------------------
ERROR
16/03/2017 10:06:19 a. m.
Version: 1.0.4.11
-------------------------------------------
E0088 :E0088. call_WS - webService_services. 
Esta conectado a una red\nEsta conectado a internet\nSe excedió el tiempo de espera de la operación


-------------------------------------------
ERROR
16/03/2017 10:07:20 a. m.
Version: 1.0.4.11
-------------------------------------------
E0088 :E0088. call_WS - webService_services. 
Esta conectado a una red\nEsta conectado a internet\nSe excedió el tiempo de espera de la operación


-------------------------------------------
ERROR
16/03/2017 10:07:20 a. m.
Version: 1.0.4.11
-------------------------------------------
E0104 :E0104. load_data - reservaciones. 
REVISAR_01: ds is nothing - 


-------------------------------------------
ERROR
16/03/2017 10:38:54 a. m.
Version: 1.0.4.11
-------------------------------------------
E0088 :E0088. call_WS - webService_services. 
Esta conectado a una red\nEsta conectado a internet\nSystem.Web.Services.Protocols.SoapException: Server was unable to process request. ---> System.NullReferenceException: Object reference not set to an instance of an object.
   at ws_pl_test.hotel_manager.procesa(XmlDocument RQ) in C:\Users\WM\Source\Workspaces\WS\ws_pl_test\Rubros\Hotel\hotel_manager.vb:line 561
   at ws_pl_test.adminRubros.rubros(XmlDocument docRQ) in C:\Users\WM\Source\Workspaces\WS\ws_pl_test\adminRubros.vb:line 14
   at ws_pl_test.Service1.ejecuta(String xmlRQ) in C:\Users\WM\Source\Workspaces\WS\ws_pl_test\Services.asmx.vb:line 48
   at ws_pl_test.Service1.SubmitXML(String xmlRQ) in C:\Users\WM\Source\Workspaces\WS\ws_pl_test\Services.asmx.vb:line 23
   --- End of inner exception stack trace ---


-------------------------------------------
ERROR
16/03/2017 11:10:07 a. m.
Version: 1.0.4.11
-------------------------------------------
E0088 :E0088. call_WS - webService_services. 
Esta conectado a una red\nEsta conectado a internet\nSystem.Web.Services.Protocols.SoapException: Server was unable to process request. ---> System.NullReferenceException: Object reference not set to an instance of an object.
   at ws_pl_test.hotel_manager.procesa(XmlDocument RQ) in C:\Users\WM\Source\Workspaces\WS\ws_pl_test\Rubros\Hotel\hotel_manager.vb:line 561
   at ws_pl_test.adminRubros.rubros(XmlDocument docRQ) in C:\Users\WM\Source\Workspaces\WS\ws_pl_test\adminRubros.vb:line 14
   at ws_pl_test.Service1.ejecuta(String xmlRQ) in C:\Users\WM\Source\Workspaces\WS\ws_pl_test\Services.asmx.vb:line 48
   at ws_pl_test.Service1.SubmitXML(String xmlRQ) in C:\Users\WM\Source\Workspaces\WS\ws_pl_test\Services.asmx.vb:line 23
   --- End of inner exception stack trace ---


-------------------------------------------
ERROR
16/03/2017 11:19:35 a. m.
Version: 1.0.4.11
-------------------------------------------
E0088 :E0088. call_WS - webService_services. 
Esta conectado a una red\nEsta conectado a internet\nSystem.Web.Services.Protocols.SoapException: Server was unable to process request. ---> System.NullReferenceException: Object reference not set to an instance of an object.
   at ws_pl_test.hotel_manager.procesa(XmlDocument RQ) in C:\Users\WM\Source\Workspaces\WS\ws_pl_test\Rubros\Hotel\hotel_manager.vb:line 561
   at ws_pl_test.adminRubros.rubros(XmlDocument docRQ) in C:\Users\WM\Source\Workspaces\WS\ws_pl_test\adminRubros.vb:line 14
   at ws_pl_test.Service1.ejecuta(String xmlRQ) in C:\Users\WM\Source\Workspaces\WS\ws_pl_test\Services.asmx.vb:line 48
   at ws_pl_test.Service1.SubmitXML(String xmlRQ) in C:\Users\WM\Source\Workspaces\WS\ws_pl_test\Services.asmx.vb:line 23
   --- End of inner exception stack trace ---


-------------------------------------------
ERROR
16/03/2017 11:21:08 a. m.
Version: 1.0.4.11
-------------------------------------------
E0088 :E0088. call_WS - webService_services. 
Esta conectado a una red\nEsta conectado a internet\nSe excedió el tiempo de espera de la operación


-------------------------------------------
ERROR
16/03/2017 11:21:51 a. m.
Version: 1.0.4.11
-------------------------------------------
E0088 :E0088. call_WS - webService_services. 
Esta conectado a una red\nEsta conectado a internet\nSystem.Web.Services.Protocols.SoapException: Server was unable to process request. ---> System.NullReferenceException: Object reference not set to an instance of an object.
   at ws_pl_test.hotel_manager.procesa(XmlDocument RQ) in C:\Users\WM\Source\Workspaces\WS\ws_pl_test\Rubros\Hotel\hotel_manager.vb:line 561
   at ws_pl_test.adminRubros.rubros(XmlDocument docRQ) in C:\Users\WM\Source\Workspaces\WS\ws_pl_test\adminRubros.vb:line 14
   at ws_pl_test.Service1.ejecuta(String xmlRQ) in C:\Users\WM\Source\Workspaces\WS\ws_pl_test\Services.asmx.vb:line 48
   at ws_pl_test.Service1.SubmitXML(String xmlRQ) in C:\Users\WM\Source\Workspaces\WS\ws_pl_test\Services.asmx.vb:line 23
   --- End of inner exception stack trace ---


-------------------------------------------
ERROR
16/03/2017 11:22:23 a. m.
Version: 1.0.4.11
-------------------------------------------
E0088 :E0088. call_WS - webService_services. 
Esta conectado a una red\nEsta conectado a internet\nSystem.Web.Services.Protocols.SoapException: Server was unable to process request. ---> System.NullReferenceException: Object reference not set to an instance of an object.
   at ws_pl_test.hotel_manager.procesa(XmlDocument RQ) in C:\Users\WM\Source\Workspaces\WS\ws_pl_test\Rubros\Hotel\hotel_manager.vb:line 561
   at ws_pl_test.adminRubros.rubros(XmlDocument docRQ) in C:\Users\WM\Source\Workspaces\WS\ws_pl_test\adminRubros.vb:line 14
   at ws_pl_test.Service1.ejecuta(String xmlRQ) in C:\Users\WM\Source\Workspaces\WS\ws_pl_test\Services.asmx.vb:line 48
   at ws_pl_test.Service1.SubmitXML(String xmlRQ) in C:\Users\WM\Source\Workspaces\WS\ws_pl_test\Services.asmx.vb:line 23
   --- End of inner exception stack trace ---


-------------------------------------------
ERROR
16/03/2017 11:26:17 a. m.
Version: 1.0.4.11
-------------------------------------------
E0088 :E0088. call_WS - webService_services. 
Esta conectado a una red\nEsta conectado a internet\nSystem.Web.Services.Protocols.SoapException: Server was unable to process request. ---> System.NullReferenceException: Object reference not set to an instance of an object.
   at ws_pl_test.hotel_manager.procesa(XmlDocument RQ) in C:\Users\WM\Source\Workspaces\WS\ws_pl_test\Rubros\Hotel\hotel_manager.vb:line 561
   at ws_pl_test.adminRubros.rubros(XmlDocument docRQ) in C:\Users\WM\Source\Workspaces\WS\ws_pl_test\adminRubros.vb:line 14
   at ws_pl_test.Service1.ejecuta(String xmlRQ) in C:\Users\WM\Source\Workspaces\WS\ws_pl_test\Services.asmx.vb:line 48
   at ws_pl_test.Service1.SubmitXML(String xmlRQ) in C:\Users\WM\Source\Workspaces\WS\ws_pl_test\Services.asmx.vb:line 23
   --- End of inner exception stack trace ---


-------------------------------------------
ERROR
16/03/2017 11:31:12 a. m.
Version: 1.0.4.11
-------------------------------------------
E0088 :E0088. call_WS - webService_services. 
Esta conectado a una red\nEsta conectado a internet\nSystem.Web.Services.Protocols.SoapException: Server was unable to process request. ---> System.NullReferenceException: Object reference not set to an instance of an object.
   at ws_pl_test.hotel_manager.procesa(XmlDocument RQ) in C:\Users\WM\Source\Workspaces\WS\ws_pl_test\Rubros\Hotel\hotel_manager.vb:line 561
   at ws_pl_test.adminRubros.rubros(XmlDocument docRQ) in C:\Users\WM\Source\Workspaces\WS\ws_pl_test\adminRubros.vb:line 14
   at ws_pl_test.Service1.ejecuta(String xmlRQ) in C:\Users\WM\Source\Workspaces\WS\ws_pl_test\Services.asmx.vb:line 48
   at ws_pl_test.Service1.SubmitXML(String xmlRQ) in C:\Users\WM\Source\Workspaces\WS\ws_pl_test\Services.asmx.vb:line 23
   --- End of inner exception stack trace ---


-------------------------------------------
ERROR
16/03/2017 11:40:02 a. m.
Version: 1.0.4.11
-------------------------------------------
E0088 :E0088. call_WS - webService_services. 
Esta conectado a una red\nEsta conectado a internet\nSystem.Web.Services.Protocols.SoapException: Server was unable to process request. ---> System.NullReferenceException: Object reference not set to an instance of an object.
   at ws_pl_test.hotel_manager.procesa(XmlDocument RQ) in C:\Users\WM\Source\Workspaces\WS\ws_pl_test\Rubros\Hotel\hotel_manager.vb:line 561
   at ws_pl_test.adminRubros.rubros(XmlDocument docRQ) in C:\Users\WM\Source\Workspaces\WS\ws_pl_test\adminRubros.vb:line 14
   at ws_pl_test.Service1.ejecuta(String xmlRQ) in C:\Users\WM\Source\Workspaces\WS\ws_pl_test\Services.asmx.vb:line 48
   at ws_pl_test.Service1.SubmitXML(String xmlRQ) in C:\Users\WM\Source\Workspaces\WS\ws_pl_test\Services.asmx.vb:line 23
   --- End of inner exception stack trace ---


-------------------------------------------
ERROR
16/03/2017 11:41:09 a. m.
Version: 1.0.4.11
-------------------------------------------
E0088 :E0088. call_WS - webService_services. 
Esta conectado a una red\nEsta conectado a internet\nSystem.Web.Services.Protocols.SoapException: Server was unable to process request. ---> System.NullReferenceException: Object reference not set to an instance of an object.
   at ws_pl_test.hotel_manager.procesa(XmlDocument RQ) in C:\Users\WM\Source\Workspaces\WS\ws_pl_test\Rubros\Hotel\hotel_manager.vb:line 561
   at ws_pl_test.adminRubros.rubros(XmlDocument docRQ) in C:\Users\WM\Source\Workspaces\WS\ws_pl_test\adminRubros.vb:line 14
   at ws_pl_test.Service1.ejecuta(String xmlRQ) in C:\Users\WM\Source\Workspaces\WS\ws_pl_test\Services.asmx.vb:line 48
   at ws_pl_test.Service1.SubmitXML(String xmlRQ) in C:\Users\WM\Source\Workspaces\WS\ws_pl_test\Services.asmx.vb:line 23
   --- End of inner exception stack trace ---


-------------------------------------------
ERROR
16/03/2017 11:48:57 a. m.
Version: 1.0.4.11
-------------------------------------------
E0088 :E0088. call_WS - webService_services. 
Esta conectado a una red\nEsta conectado a internet\nSystem.Web.Services.Protocols.SoapException: Server was unable to process request. ---> System.NullReferenceException: Object reference not set to an instance of an object.
   at ws_pl_test.hotel_manager.procesa(XmlDocument RQ) in C:\Users\WM\Source\Workspaces\WS\ws_pl_test\Rubros\Hotel\hotel_manager.vb:line 561
   at ws_pl_test.adminRubros.rubros(XmlDocument docRQ) in C:\Users\WM\Source\Workspaces\WS\ws_pl_test\adminRubros.vb:line 14
   at ws_pl_test.Service1.ejecuta(String xmlRQ) in C:\Users\WM\Source\Workspaces\WS\ws_pl_test\Services.asmx.vb:line 48
   at ws_pl_test.Service1.SubmitXML(String xmlRQ) in C:\Users\WM\Source\Workspaces\WS\ws_pl_test\Services.asmx.vb:line 23
   --- End of inner exception stack trace ---


-------------------------------------------
ERROR
16/03/2017 11:53:10 a. m.
Version: 1.0.4.11
-------------------------------------------
E0088 :E0088. call_WS - webService_services. 
Esta conectado a una red\nEsta conectado a internet\nSystem.Web.Services.Protocols.SoapException: Server was unable to process request. ---> System.NullReferenceException: Object reference not set to an instance of an object.
   at ws_pl_test.hotel_manager.procesa(XmlDocument RQ) in C:\Users\WM\Source\Workspaces\WS\ws_pl_test\Rubros\Hotel\hotel_manager.vb:line 561
   at ws_pl_test.adminRubros.rubros(XmlDocument docRQ) in C:\Users\WM\Source\Workspaces\WS\ws_pl_test\adminRubros.vb:line 14
   at ws_pl_test.Service1.ejecuta(String xmlRQ) in C:\Users\WM\Source\Workspaces\WS\ws_pl_test\Services.asmx.vb:line 48
   at ws_pl_test.Service1.SubmitXML(String xmlRQ) in C:\Users\WM\Source\Workspaces\WS\ws_pl_test\Services.asmx.vb:line 23
   --- End of inner exception stack trace ---


-------------------------------------------
ERROR
16/03/2017 11:54:43 a. m.
Version: 1.0.4.11
-------------------------------------------
E0088 :E0088. call_WS - webService_services. 
Esta conectado a una red\nEsta conectado a internet\nSystem.Web.Services.Protocols.SoapException: Server was unable to process request. ---> System.NullReferenceException: Object reference not set to an instance of an object.
   at ws_pl_test.hotel_manager.procesa(XmlDocument RQ) in C:\Users\WM\Source\Workspaces\WS\ws_pl_test\Rubros\Hotel\hotel_manager.vb:line 561
   at ws_pl_test.adminRubros.rubros(XmlDocument docRQ) in C:\Users\WM\Source\Workspaces\WS\ws_pl_test\adminRubros.vb:line 14
   at ws_pl_test.Service1.ejecuta(String xmlRQ) in C:\Users\WM\Source\Workspaces\WS\ws_pl_test\Services.asmx.vb:line 48
   at ws_pl_test.Service1.SubmitXML(String xmlRQ) in C:\Users\WM\Source\Workspaces\WS\ws_pl_test\Services.asmx.vb:line 23
   --- End of inner exception stack trace ---


-------------------------------------------
ERROR
16/03/2017 11:56:37 a. m.
Version: 1.0.4.11
-------------------------------------------
E0088 :E0088. call_WS - webService_services. 
Esta conectado a una red\nEsta conectado a internet\nSystem.Web.Services.Protocols.SoapException: Server was unable to process request. ---> System.NullReferenceException: Object reference not set to an instance of an object.
   at ws_pl_test.hotel_manager.procesa(XmlDocument RQ) in C:\Users\WM\Source\Workspaces\WS\ws_pl_test\Rubros\Hotel\hotel_manager.vb:line 561
   at ws_pl_test.adminRubros.rubros(XmlDocument docRQ) in C:\Users\WM\Source\Workspaces\WS\ws_pl_test\adminRubros.vb:line 14
   at ws_pl_test.Service1.ejecuta(String xmlRQ) in C:\Users\WM\Source\Workspaces\WS\ws_pl_test\Services.asmx.vb:line 48
   at ws_pl_test.Service1.SubmitXML(String xmlRQ) in C:\Users\WM\Source\Workspaces\WS\ws_pl_test\Services.asmx.vb:line 23
   --- End of inner exception stack trace ---


-------------------------------------------
ERROR
16/03/2017 12:02:49 p. m.
Version: 1.0.4.11
-------------------------------------------
E0088 :E0088. call_WS - webService_services. 
Esta conectado a una red\nEsta conectado a internet\nSystem.Web.Services.Protocols.SoapException: Server was unable to process request. ---> System.NullReferenceException: Object reference not set to an instance of an object.
   at ws_pl_test.hotel_manager.procesa(XmlDocument RQ) in C:\Users\WM\Source\Workspaces\WS\ws_pl_test\Rubros\Hotel\hotel_manager.vb:line 561
   at ws_pl_test.adminRubros.rubros(XmlDocument docRQ) in C:\Users\WM\Source\Workspaces\WS\ws_pl_test\adminRubros.vb:line 14
   at ws_pl_test.Service1.ejecuta(String xmlRQ) in C:\Users\WM\Source\Workspaces\WS\ws_pl_test\Services.asmx.vb:line 48
   at ws_pl_test.Service1.SubmitXML(String xmlRQ) in C:\Users\WM\Source\Workspaces\WS\ws_pl_test\Services.asmx.vb:line 23
   --- End of inner exception stack trace ---


-------------------------------------------
ERROR
16/03/2017 12:07:30 p. m.
Version: 1.0.4.11
-------------------------------------------
E0088 :E0088. call_WS - webService_services. 
Esta conectado a una red\nEsta conectado a internet\nSystem.Web.Services.Protocols.SoapException: Server was unable to process request. ---> System.NullReferenceException: Object reference not set to an instance of an object.
   at ws_pl_test.hotel_manager.procesa(XmlDocument RQ) in C:\Users\WM\Source\Workspaces\WS\ws_pl_test\Rubros\Hotel\hotel_manager.vb:line 561
   at ws_pl_test.adminRubros.rubros(XmlDocument docRQ) in C:\Users\WM\Source\Workspaces\WS\ws_pl_test\adminRubros.vb:line 14
   at ws_pl_test.Service1.ejecuta(String xmlRQ) in C:\Users\WM\Source\Workspaces\WS\ws_pl_test\Services.asmx.vb:line 48
   at ws_pl_test.Service1.SubmitXML(String xmlRQ) in C:\Users\WM\Source\Workspaces\WS\ws_pl_test\Services.asmx.vb:line 23
   --- End of inner exception stack trace ---


-------------------------------------------
ERROR
16/03/2017 12:08:55 p. m.
Version: 1.0.4.11
-------------------------------------------
E0088 :E0088. call_WS - webService_services. 
Esta conectado a una red\nEsta conectado a internet\nSystem.Web.Services.Protocols.SoapException: Server was unable to process request. ---> System.NullReferenceException: Object reference not set to an instance of an object.
   at ws_pl_test.hotel_manager.procesa(XmlDocument RQ) in C:\Users\WM\Source\Workspaces\WS\ws_pl_test\Rubros\Hotel\hotel_manager.vb:line 561
   at ws_pl_test.adminRubros.rubros(XmlDocument docRQ) in C:\Users\WM\Source\Workspaces\WS\ws_pl_test\adminRubros.vb:line 14
   at ws_pl_test.Service1.ejecuta(String xmlRQ) in C:\Users\WM\Source\Workspaces\WS\ws_pl_test\Services.asmx.vb:line 48
   at ws_pl_test.Service1.SubmitXML(String xmlRQ) in C:\Users\WM\Source\Workspaces\WS\ws_pl_test\Services.asmx.vb:line 23
   --- End of inner exception stack trace ---


-------------------------------------------
ERROR
16/03/2017 12:09:36 p. m.
Version: 1.0.4.11
-------------------------------------------
E0088 :E0088. call_WS - webService_services. 
Esta conectado a una red\nEsta conectado a internet\nSystem.Web.Services.Protocols.SoapException: Server was unable to process request. ---> System.NullReferenceException: Object reference not set to an instance of an object.
   at ws_pl_test.hotel_manager.procesa(XmlDocument RQ) in C:\Users\WM\Source\Workspaces\WS\ws_pl_test\Rubros\Hotel\hotel_manager.vb:line 561
   at ws_pl_test.adminRubros.rubros(XmlDocument docRQ) in C:\Users\WM\Source\Workspaces\WS\ws_pl_test\adminRubros.vb:line 14
   at ws_pl_test.Service1.ejecuta(String xmlRQ) in C:\Users\WM\Source\Workspaces\WS\ws_pl_test\Services.asmx.vb:line 48
   at ws_pl_test.Service1.SubmitXML(String xmlRQ) in C:\Users\WM\Source\Workspaces\WS\ws_pl_test\Services.asmx.vb:line 23
   --- End of inner exception stack trace ---


-------------------------------------------
ERROR
16/03/2017 12:38:15 p. m.
Version: 1.0.4.11
-------------------------------------------
E0088 :E0088. call_WS - webService_services. 
Esta conectado a una red\nEsta conectado a internet\nSystem.Web.Services.Protocols.SoapException: Server was unable to process request. ---> System.NullReferenceException: Object reference not set to an instance of an object.
   at ws_pl_test.hotel_manager.procesa(XmlDocument RQ) in C:\Users\WM\Source\Workspaces\WS\ws_pl_test\Rubros\Hotel\hotel_manager.vb:line 561
   at ws_pl_test.adminRubros.rubros(XmlDocument docRQ) in C:\Users\WM\Source\Workspaces\WS\ws_pl_test\adminRubros.vb:line 14
   at ws_pl_test.Service1.ejecuta(String xmlRQ) in C:\Users\WM\Source\Workspaces\WS\ws_pl_test\Services.asmx.vb:line 48
   at ws_pl_test.Service1.SubmitXML(String xmlRQ) in C:\Users\WM\Source\Workspaces\WS\ws_pl_test\Services.asmx.vb:line 23
   --- End of inner exception stack trace ---


-------------------------------------------
ERROR
16/03/2017 12:43:50 p. m.
Version: 1.0.4.11
-------------------------------------------
E0088 :E0088. call_WS - webService_services. 
Esta conectado a una red\nEsta conectado a internet\nSystem.Web.Services.Protocols.SoapException: Server was unable to process request. ---> System.NullReferenceException: Object reference not set to an instance of an object.
   at ws_pl_test.hotel_manager.procesa(XmlDocument RQ) in C:\Users\WM\Source\Workspaces\WS\ws_pl_test\Rubros\Hotel\hotel_manager.vb:line 561
   at ws_pl_test.adminRubros.rubros(XmlDocument docRQ) in C:\Users\WM\Source\Workspaces\WS\ws_pl_test\adminRubros.vb:line 14
   at ws_pl_test.Service1.ejecuta(String xmlRQ) in C:\Users\WM\Source\Workspaces\WS\ws_pl_test\Services.asmx.vb:line 48
   at ws_pl_test.Service1.SubmitXML(String xmlRQ) in C:\Users\WM\Source\Workspaces\WS\ws_pl_test\Services.asmx.vb:line 23
   --- End of inner exception stack trace ---


-------------------------------------------
ERROR
16/03/2017 12:51:17 p. m.
Version: 1.0.4.11
-------------------------------------------
E0088 :E0088. call_WS - webService_services. 
Esta conectado a una red\nEsta conectado a internet\nSystem.Web.Services.Protocols.SoapException: Server was unable to process request. ---> System.NullReferenceException: Object reference not set to an instance of an object.
   at ws_pl_test.hotel_manager.procesa(XmlDocument RQ) in C:\Users\WM\Source\Workspaces\WS\ws_pl_test\Rubros\Hotel\hotel_manager.vb:line 561
   at ws_pl_test.adminRubros.rubros(XmlDocument docRQ) in C:\Users\WM\Source\Workspaces\WS\ws_pl_test\adminRubros.vb:line 14
   at ws_pl_test.Service1.ejecuta(String xmlRQ) in C:\Users\WM\Source\Workspaces\WS\ws_pl_test\Services.asmx.vb:line 48
   at ws_pl_test.Service1.SubmitXML(String xmlRQ) in C:\Users\WM\Source\Workspaces\WS\ws_pl_test\Services.asmx.vb:line 23
   --- End of inner exception stack trace ---


-------------------------------------------
ERROR
16/03/2017 12:59:59 p. m.
Version: 1.0.4.11
-------------------------------------------
E0088 :E0088. call_WS - webService_services. 
Esta conectado a una red\nEsta conectado a internet\nSystem.Web.Services.Protocols.SoapException: Server was unable to process request. ---> System.NullReferenceException: Object reference not set to an instance of an object.
   at ws_pl_test.hotel_manager.procesa(XmlDocument RQ) in C:\Users\WM\Source\Workspaces\WS\ws_pl_test\Rubros\Hotel\hotel_manager.vb:line 561
   at ws_pl_test.adminRubros.rubros(XmlDocument docRQ) in C:\Users\WM\Source\Workspaces\WS\ws_pl_test\adminRubros.vb:line 14
   at ws_pl_test.Service1.ejecuta(String xmlRQ) in C:\Users\WM\Source\Workspaces\WS\ws_pl_test\Services.asmx.vb:line 48
   at ws_pl_test.Service1.SubmitXML(String xmlRQ) in C:\Users\WM\Source\Workspaces\WS\ws_pl_test\Services.asmx.vb:line 23
   --- End of inner exception stack trace ---


-------------------------------------------
ERROR
16/03/2017 01:03:27 p. m.
Version: 1.0.4.11
-------------------------------------------
E0088 :E0088. call_WS - webService_services. 
Esta conectado a una red\nEsta conectado a internet\nAnulada la solicitud: Se excedió el tiempo de espera de la operación.


-------------------------------------------
ERROR
16/03/2017 01:07:23 p. m.
Version: 1.0.4.11
-------------------------------------------
E0088 :E0088. call_WS - webService_services. 
Esta conectado a una red\nEsta conectado a internet\nSystem.Web.Services.Protocols.SoapException: Server was unable to process request. ---> System.NullReferenceException: Object reference not set to an instance of an object.
   at ws_pl_test.hotel_manager.procesa(XmlDocument RQ) in C:\Users\WM\Source\Workspaces\WS\ws_pl_test\Rubros\Hotel\hotel_manager.vb:line 561
   at ws_pl_test.adminRubros.rubros(XmlDocument docRQ) in C:\Users\WM\Source\Workspaces\WS\ws_pl_test\adminRubros.vb:line 14
   at ws_pl_test.Service1.ejecuta(String xmlRQ) in C:\Users\WM\Source\Workspaces\WS\ws_pl_test\Services.asmx.vb:line 48
   at ws_pl_test.Service1.SubmitXML(String xmlRQ) in C:\Users\WM\Source\Workspaces\WS\ws_pl_test\Services.asmx.vb:line 23
   --- End of inner exception stack trace ---


-------------------------------------------
ERROR
16/03/2017 01:47:54 p. m.
Version: 1.0.4.11
-------------------------------------------
E0088 :E0088. call_WS - webService_services. 
Esta conectado a una red\nEsta conectado a internet\nSystem.Web.Services.Protocols.SoapException: Server was unable to process request. ---> System.NullReferenceException: Object reference not set to an instance of an object.
   at ws_pl_test.hotel_manager.procesa(XmlDocument RQ) in C:\Users\WM\Source\Workspaces\WS\ws_pl_test\Rubros\Hotel\hotel_manager.vb:line 561
   at ws_pl_test.adminRubros.rubros(XmlDocument docRQ) in C:\Users\WM\Source\Workspaces\WS\ws_pl_test\adminRubros.vb:line 14
   at ws_pl_test.Service1.ejecuta(String xmlRQ) in C:\Users\WM\Source\Workspaces\WS\ws_pl_test\Services.asmx.vb:line 48
   at ws_pl_test.Service1.SubmitXML(String xmlRQ) in C:\Users\WM\Source\Workspaces\WS\ws_pl_test\Services.asmx.vb:line 23
   --- End of inner exception stack trace ---


-------------------------------------------
ERROR
16/03/2017 02:10:54 p. m.
Version: 1.0.4.11
-------------------------------------------
E0088 :E0088. call_WS - webService_services. 
Esta conectado a una red\nEsta conectado a internet\nSystem.Web.Services.Protocols.SoapException: Server was unable to process request. ---> System.NullReferenceException: Object reference not set to an instance of an object.
   at ws_pl_test.hotel_manager.procesa(XmlDocument RQ) in C:\Users\WM\Source\Workspaces\WS\ws_pl_test\Rubros\Hotel\hotel_manager.vb:line 561
   at ws_pl_test.adminRubros.rubros(XmlDocument docRQ) in C:\Users\WM\Source\Workspaces\WS\ws_pl_test\adminRubros.vb:line 14
   at ws_pl_test.Service1.ejecuta(String xmlRQ) in C:\Users\WM\Source\Workspaces\WS\ws_pl_test\Services.asmx.vb:line 48
   at ws_pl_test.Service1.SubmitXML(String xmlRQ) in C:\Users\WM\Source\Workspaces\WS\ws_pl_test\Services.asmx.vb:line 23
   --- End of inner exception stack trace ---


-------------------------------------------
ERROR
16/03/2017 02:10:57 p. m.
Version: 1.0.4.11
-------------------------------------------
E0074 :E0074. exe_accion - misForms. 
Referencia a objeto no establecida como instancia de un objeto.


-------------------------------------------
ERROR
16/03/2017 02:11:25 p. m.
Version: 1.0.4.11
-------------------------------------------
E0088 :E0088. call_WS - webService_services. 
Esta conectado a una red\nEsta conectado a internet\nSystem.Web.Services.Protocols.SoapException: Server was unable to process request. ---> System.NullReferenceException: Object reference not set to an instance of an object.
   at ws_pl_test.hotel_manager.procesa(XmlDocument RQ) in C:\Users\WM\Source\Workspaces\WS\ws_pl_test\Rubros\Hotel\hotel_manager.vb:line 561
   at ws_pl_test.adminRubros.rubros(XmlDocument docRQ) in C:\Users\WM\Source\Workspaces\WS\ws_pl_test\adminRubros.vb:line 14
   at ws_pl_test.Service1.ejecuta(String xmlRQ) in C:\Users\WM\Source\Workspaces\WS\ws_pl_test\Services.asmx.vb:line 48
   at ws_pl_test.Service1.SubmitXML(String xmlRQ) in C:\Users\WM\Source\Workspaces\WS\ws_pl_test\Services.asmx.vb:line 23
   --- End of inner exception stack trace ---


-------------------------------------------
ERROR
16/03/2017 02:13:35 p. m.
Version: 1.0.4.11
-------------------------------------------
E0088 :E0088. call_WS - webService_services. 
Esta conectado a una red\nEsta conectado a internet\nSe excedió el tiempo de espera de la operación


-------------------------------------------
ERROR
16/03/2017 02:15:16 p. m.
Version: 1.0.4.11
-------------------------------------------
E0088 :E0088. call_WS - webService_services. 
Esta conectado a una red\nEsta conectado a internet\nSe excedió el tiempo de espera de la operación


-------------------------------------------
ERROR
16/03/2017 02:18:19 p. m.
Version: 1.0.4.11
-------------------------------------------
E0088 :E0088. call_WS - webService_services. 
Esta conectado a una red\nEsta conectado a internet\nSystem.Web.Services.Protocols.SoapException: Server was unable to process request. ---> System.NullReferenceException: Object reference not set to an instance of an object.
   at ws_pl_test.hotel_manager.procesa(XmlDocument RQ) in C:\Users\WM\Source\Workspaces\WS\ws_pl_test\Rubros\Hotel\hotel_manager.vb:line 561
   at ws_pl_test.adminRubros.rubros(XmlDocument docRQ) in C:\Users\WM\Source\Workspaces\WS\ws_pl_test\adminRubros.vb:line 14
   at ws_pl_test.Service1.ejecuta(String xmlRQ) in C:\Users\WM\Source\Workspaces\WS\ws_pl_test\Services.asmx.vb:line 48
   at ws_pl_test.Service1.SubmitXML(String xmlRQ) in C:\Users\WM\Source\Workspaces\WS\ws_pl_test\Services.asmx.vb:line 23
   --- End of inner exception stack trace ---


-------------------------------------------
ERROR
16/03/2017 02:18:56 p. m.
Version: 1.0.4.11
-------------------------------------------
E0088 :E0088. call_WS - webService_services. 
Esta conectado a una red\nEsta conectado a internet\nSystem.Web.Services.Protocols.SoapException: Server was unable to process request. ---> System.NullReferenceException: Object reference not set to an instance of an object.
   at ws_pl_test.hotel_manager.procesa(XmlDocument RQ) in C:\Users\WM\Source\Workspaces\WS\ws_pl_test\Rubros\Hotel\hotel_manager.vb:line 561
   at ws_pl_test.adminRubros.rubros(XmlDocument docRQ) in C:\Users\WM\Source\Workspaces\WS\ws_pl_test\adminRubros.vb:line 14
   at ws_pl_test.Service1.ejecuta(String xmlRQ) in C:\Users\WM\Source\Workspaces\WS\ws_pl_test\Services.asmx.vb:line 48
   at ws_pl_test.Service1.SubmitXML(String xmlRQ) in C:\Users\WM\Source\Workspaces\WS\ws_pl_test\Services.asmx.vb:line 23
   --- End of inner exception stack trace ---


-------------------------------------------
ERROR
16/03/2017 02:19:17 p. m.
Version: 1.0.4.11
-------------------------------------------
E0088 :E0088. call_WS - webService_services. 
Esta conectado a una red\nEsta conectado a internet\nSystem.Web.Services.Protocols.SoapException: Server was unable to process request. ---> System.NullReferenceException: Object reference not set to an instance of an object.
   at ws_pl_test.hotel_manager.procesa(XmlDocument RQ) in C:\Users\WM\Source\Workspaces\WS\ws_pl_test\Rubros\Hotel\hotel_manager.vb:line 561
   at ws_pl_test.adminRubros.rubros(XmlDocument docRQ) in C:\Users\WM\Source\Workspaces\WS\ws_pl_test\adminRubros.vb:line 14
   at ws_pl_test.Service1.ejecuta(String xmlRQ) in C:\Users\WM\Source\Workspaces\WS\ws_pl_test\Services.asmx.vb:line 48
   at ws_pl_test.Service1.SubmitXML(String xmlRQ) in C:\Users\WM\Source\Workspaces\WS\ws_pl_test\Services.asmx.vb:line 23
   --- End of inner exception stack trace ---


-------------------------------------------
ERROR
16/03/2017 02:19:49 p. m.
Version: 1.0.4.11
-------------------------------------------
E0088 :E0088. call_WS - webService_services. 
Esta conectado a una red\nEsta conectado a internet\nSystem.Web.Services.Protocols.SoapException: Server was unable to process request. ---> System.NullReferenceException: Object reference not set to an instance of an object.
   at ws_pl_test.hotel_manager.procesa(XmlDocument RQ) in C:\Users\WM\Source\Workspaces\WS\ws_pl_test\Rubros\Hotel\hotel_manager.vb:line 561
   at ws_pl_test.adminRubros.rubros(XmlDocument docRQ) in C:\Users\WM\Source\Workspaces\WS\ws_pl_test\adminRubros.vb:line 14
   at ws_pl_test.Service1.ejecuta(String xmlRQ) in C:\Users\WM\Source\Workspaces\WS\ws_pl_test\Services.asmx.vb:line 48
   at ws_pl_test.Service1.SubmitXML(String xmlRQ) in C:\Users\WM\Source\Workspaces\WS\ws_pl_test\Services.asmx.vb:line 23
   --- End of inner exception stack trace ---


-------------------------------------------
ERROR
16/03/2017 02:20:09 p. m.
Version: 1.0.4.11
-------------------------------------------
E0088 :E0088. call_WS - webService_services. 
Esta conectado a una red\nEsta conectado a internet\nSystem.Web.Services.Protocols.SoapException: Server was unable to process request. ---> System.NullReferenceException: Object reference not set to an instance of an object.
   at ws_pl_test.hotel_manager.procesa(XmlDocument RQ) in C:\Users\WM\Source\Workspaces\WS\ws_pl_test\Rubros\Hotel\hotel_manager.vb:line 561
   at ws_pl_test.adminRubros.rubros(XmlDocument docRQ) in C:\Users\WM\Source\Workspaces\WS\ws_pl_test\adminRubros.vb:line 14
   at ws_pl_test.Service1.ejecuta(String xmlRQ) in C:\Users\WM\Source\Workspaces\WS\ws_pl_test\Services.asmx.vb:line 48
   at ws_pl_test.Service1.SubmitXML(String xmlRQ) in C:\Users\WM\Source\Workspaces\WS\ws_pl_test\Services.asmx.vb:line 23
   --- End of inner exception stack trace ---