



-------------------------------------------
RQ
17/03/2017 10:41:44 a. m.
Version: 1.0.4.11
-------------------------------------------
<reqHotelIndex>
  <Index Index_Id="0">
    <HotelHeader>
      <Language>ES</Language>
      <Code>AGU</Code>
      <RefPoint>Aguascalientes</RefPoint>
      <DistanceRatio>1</DistanceRatio>
      <ChainCode>UV</ChainCode>
      <SearchBy>C</SearchBy>
      <AltCurrency>MXN</AltCurrency>
      <Source>CCT</Source>
      <IdAsociacion>0</IdAsociacion>
      <IdArea>0</IdArea>
    </HotelHeader>
    <HotelRequest HotelRequest_Id="0">
      <StartDate>20171018</StartDate>
      <EndDate>20171019</EndDate>
      <Nights>1</Nights>
      <Adults>2</Adults>
      <Children>0</Children>
      <NumRooms>1</NumRooms>
      <Rooms Rooms_Id="0">
        <Room Room_Id="0">
          <Children>0</Children>
          <Adults>2</Adults>
        </Room>
      </Rooms>
    </HotelRequest>
  </Index>
</reqHotelIndex>



-------------------------------------------
RS
17/03/2017 10:41:51 a. m.
Version: 1.0.4.11
-------------------------------------------
<Hotel_HOI_RS>
  <Properties>
    <Property>
      <PropertyNumber>524</PropertyNumber>
      <PropertyName>Pequeño Gran Hotel</PropertyName>
      <ChainCode />
      <Address>Av. de la Convención Pte. # 207 Fracc. Modelo</Address>
      <Phone>(449) 915 85 01</Phone>
      <Fax>(449) 915 85 16</Fax>
      <Category>https://images.univisit.net/GLOBAL/images/Category/Star3.gif</Category>
      <CityCode>AGU</CityCode>
      <CityName>Aguascalientes</CityName>
      <StateName>AG</StateName>
      <CountryCode>MX</CountryCode>
      <ShortDescription>El Pequeño Gran Hotel está estratégicamente localizado en una de las principales avenidas de la bella ciudad de Aguascalientes, con fácil acceso a las mayores atracciones turísticas y a los centros de negocios de esta tranquila capital del estado y a unas cuantas cuadras de la famosa FERIA NACIONAL ...</ShortDescription>
      <ImageURL>https://crs.univisit.com/images/global/Albums/10/1018/16170_M</ImageURL>
      <Latitude />
      <Logitude />
      <LowRate>0</LowRate>
      <Decimals>0</Decimals>
      <Currency>USD</Currency>
      <LogoURL>https://images.univisit.net/GLOBAL/ImagesSystem/Logos/LogoCompany_1018</LogoURL>
      <ServiceProvider>0</ServiceProvider>
      <RichContent>1</RichContent>
      <Blocked>N</Blocked>
      <AltLowRate>0</AltLowRate>
      <AltDecimals>0</AltDecimals>
      <AltCurrency>USD</AltCurrency>
      <HasRatesPackage>N</HasRatesPackage>
      <Emprhotur>N</Emprhotur>
      <AmhmRes>N</AmhmRes>
      <ParseUrl>/mexico/aguascalientes/aguascalientes/hoteles/Pequeno_Gran_Hotel</ParseUrl>
      <Provider />
    </Property>
    <Property>
      <PropertyNumber>523</PropertyNumber>
      <PropertyName>Inn Galerias</PropertyName>
      <ChainCode />
      <Address>Av. de la Convención Pte. # 125 Fracc. Modelo</Address>
      <Phone>(449) 916 26 69</Phone>
      <Fax>(449) 916 89 19</Fax>
      <Category>https://images.univisit.net/GLOBAL/images/Category/Star4.gif</Category>
      <CityCode>AGU</CityCode>
      <CityName>Aguascalientes</CityName>
      <StateName>AG</StateName>
      <CountryCode>MX</CountryCode>
      <ShortDescription />
      <ImageURL />
      <Latitude />
      <Logitude />
      <LowRate>0</LowRate>
      <Decimals>0</Decimals>
      <Currency>USD</Currency>
      <LogoURL>https://images.univisit.net/GLOBAL/ImagesSystem/Logos/LogoCompany_1019</LogoURL>
      <ServiceProvider>0</ServiceProvider>
      <RichContent>1</RichContent>
      <Blocked>N</Blocked>
      <AltLowRate>0</AltLowRate>
      <AltDecimals>0</AltDecimals>
      <AltCurrency>USD</AltCurrency>
      <HasRatesPackage />
      <Emprhotur>N</Emprhotur>
      <AmhmRes>N</AmhmRes>
      <ParseUrl />
      <Provider />
    </Property>
    <Property>
      <PropertyNumber>1323</PropertyNumber>
      <PropertyName>Aguascalientes</PropertyName>
      <ChainCode>UV</ChainCode>
      <Address>Independencia # 1703 Col. Trojes de Cristal </Address>
      <Phone>449-993-3901</Phone>
      <Fax>449-993-3900</Fax>
      <Category>https://images.univisit.net/GLOBAL/images/Category/Star5.gif</Category>
      <CityCode>AGU</CityCode>
      <CityName>Aguascalientes</CityName>
      <StateName>AG</StateName>
      <CountryCode>MX</CountryCode>
      <ShortDescription>     Hotel Aguascalientes en Aguascalientes, Aguascalientes, México cuenta con un excelente servicio de hospedaje que complacerá totalmente a sus huéspedes, como ha sido desde que inició sus actividades en el 2008. La principal finalidad del hotel es poder brindarle una completa atención, excelentes...</ShortDescription>
      <ImageURL>https://crs.univisit.com/images/global/Albums/10/4235/14822_M</ImageURL>
      <Latitude>21.91894</Latitude>
      <Logitude>-102.296988</Logitude>
      <LowRate>0</LowRate>
      <Decimals>0</Decimals>
      <Currency>USD</Currency>
      <LogoURL>https://images.univisit.net/GLOBAL/ImagesSystem/Logos/LogoCompany_4235</LogoURL>
      <ServiceProvider>0</ServiceProvider>
      <RichContent>1</RichContent>
      <Blocked>N</Blocked>
      <AltLowRate>0</AltLowRate>
      <AltDecimals>0</AltDecimals>
      <AltCurrency>USD</AltCurrency>
      <HasRatesPackage>N</HasRatesPackage>
      <Emprhotur>N</Emprhotur>
      <AmhmRes>N</AmhmRes>
      <ParseUrl>/mexico/aguascalientes/aguascalientes/hoteles/aguascalientes</ParseUrl>
      <Provider />
    </Property>
    <Property>
      <PropertyNumber>1486</PropertyNumber>
      <PropertyName>Hotel Misión Express Aguascalientes Zona Norte</PropertyName>
      <ChainCode>UV</ChainCode>
      <Address>Blvd. A Zacatecas km 9</Address>
      <Phone>449-973-1093</Phone>
      <Fax>52-449-973-1013</Fax>
      <Category>https://images.univisit.net/GLOBAL/images/Category/Star4.gif</Category>
      <CityCode>AGU</CityCode>
      <CityName>Aguascalientes</CityName>
      <StateName>AG</StateName>
      <CountryCode>MX</CountryCode>
      <ShortDescription>     Práctico hospedaje en la capital hidrocálida. En nuestras instalaciones, un viaje de placer al igual que uno de negocios o la participación en una convención se hacen de lo más agradable. Contamos con todas las facilidades para hacer la estancia al mismo tiempo eficiente y sumamente reconfortan...</ShortDescription>
      <ImageURL>https://crs.univisit.com/images/global/Albums/10/6037/18666_M</ImageURL>
      <Latitude>21.964296</Latitude>
      <Logitude>-102.288697</Logitude>
      <LowRate>0</LowRate>
      <Decimals>0</Decimals>
      <Currency>USD</Currency>
      <LogoURL>https://images.univisit.net/GLOBAL/ImagesSystem/Logos/LogoCompany_6037</LogoURL>
      <ServiceProvider>0</ServiceProvider>
      <RichContent>1</RichContent>
      <Blocked>N</Blocked>
      <AltLowRate>0</AltLowRate>
      <AltDecimals>0</AltDecimals>
      <AltCurrency>USD</AltCurrency>
      <HasRatesPackage>N</HasRatesPackage>
      <Emprhotur>N</Emprhotur>
      <AmhmRes>N</AmhmRes>
      <ParseUrl>/mexico/aguascalientes/aguascalientes/hoteles/mision-aguascalientes</ParseUrl>
      <Provider>MISION</Provider>
    </Property>
    <Property>
      <PropertyNumber>1978</PropertyNumber>
      <PropertyName>Hotel Misión Aguascalientes Sur </PropertyName>
      <ChainCode>UV</ChainCode>
      <Address>Blvd. José María Chávez # 2100. Ciudad Industrial</Address>
      <Phone>449-971-08-45</Phone>
      <Fax>52-449-971-08-60</Fax>
      <Category>https://images.univisit.net/GLOBAL/images/Category/Star4.gif</Category>
      <CityCode>AGU</CityCode>
      <CityName>Aguascalientes</CityName>
      <StateName>AG</StateName>
      <CountryCode>MX</CountryCode>
      <ShortDescription>Descripcion de la Propiedad</ShortDescription>
      <ImageURL>https://crs.univisit.com/images/global/Albums//10/6972/43467_M</ImageURL>
      <Latitude>21.834445</Latitude>
      <Logitude>-102.288409</Logitude>
      <LowRate>0</LowRate>
      <Decimals>0</Decimals>
      <Currency>USD</Currency>
      <LogoURL>https://images.univisit.net/GLOBAL/ImagesSystem/Logos/LogoCompany_6972</LogoURL>
      <ServiceProvider>0</ServiceProvider>
      <RichContent>1</RichContent>
      <Blocked>N</Blocked>
      <AltLowRate>0</AltLowRate>
      <AltDecimals>0</AltDecimals>
      <AltCurrency>USD</AltCurrency>
      <HasRatesPackage>N</HasRatesPackage>
      <Emprhotur>N</Emprhotur>
      <AmhmRes>N</AmhmRes>
      <ParseUrl>/mexico/aguascalientes/aguascalientes/hoteles/Hotel-Mision-Aguascalientes-Sur</ParseUrl>
      <Provider>MISION</Provider>
    </Property>
    <Property>
      <PropertyNumber>2743</PropertyNumber>
      <PropertyName>City Express Poza Rica</PropertyName>
      <ChainCode />
      <Address>Carr. Acceso a Puente Cazones 68 Col. Plan de Ayala</Address>
      <Phone>782 826 4300</Phone>
      <Fax>782 826 4300</Fax>
      <Category>https://images.univisit.net/GLOBAL/images/Category/Star4.gif</Category>
      <CityCode>AGU</CityCode>
      <CityName>Aguascalientes</CityName>
      <StateName>AG</StateName>
      <CountryCode>MX</CountryCode>
      <ShortDescription>     City Express Poza Rica esta dirigido al viajero de negocios que busca calidad y servicios especializados a un precio justo, por lo que los beneficios de las tarifas incluye; desayuno buffet continental en cortesía, centro de negocios, gimnasio, internet alámbrico e inalámbrico, transportación a...</ShortDescription>
      <ImageURL>https://crs.univisit.com/images/global/Albums/10/7926/42282_M</ImageURL>
      <Latitude>20.554105350738</Latitude>
      <Logitude>97.464888095855</Logitude>
      <LowRate>0</LowRate>
      <Decimals>0</Decimals>
      <Currency>USD</Currency>
      <LogoURL>https://images.univisit.net/GLOBAL/ImagesSystem/Logos/LogoCompany_7926</LogoURL>
      <ServiceProvider>0</ServiceProvider>
      <RichContent>1</RichContent>
      <Blocked>N</Blocked>
      <AltLowRate>0</AltLowRate>
      <AltDecimals>0</AltDecimals>
      <AltCurrency>USD</AltCurrency>
      <HasRatesPackage>N</HasRatesPackage>
      <Emprhotur>N</Emprhotur>
      <AmhmRes>N</AmhmRes>
      <ParseUrl />
      <Provider>ZAR</Provider>
    </Property>
    <Property>
      <PropertyNumber>2749</PropertyNumber>
      <PropertyName>City Express Morelia Centro</PropertyName>
      <ChainCode />
      <Address>Portal Hidalgo No.245 Col. Centro</Address>
      <Phone>443 310 8400</Phone>
      <Fax>443 312 4663</Fax>
      <Category>https://images.univisit.net/GLOBAL/images/Category/Star4.gif</Category>
      <CityCode>AGU</CityCode>
      <CityName>Aguascalientes</CityName>
      <StateName>AG</StateName>
      <CountryCode>MX</CountryCode>
      <ShortDescription>     City Express Morelia  esta dirigido al viajero de negocios que busca calidad y servicios especializados a un precio justo, por lo que los beneficios de las tarifas incluye; desayuno buffet continental en cortesía, centro de negocios, gimnasio, internet alámbrico e inalámbrico, transportación a ...</ShortDescription>
      <ImageURL>https://crs.univisit.com/images/global/Albums/10/7933/42254_M</ImageURL>
      <Latitude>19.703142483823</Latitude>
      <Logitude>101.19374334812</Logitude>
      <LowRate>0</LowRate>
      <Decimals>0</Decimals>
      <Currency>USD</Currency>
      <LogoURL>https://images.univisit.net/GLOBAL/ImagesSystem/Logos/LogoCompany_7933</LogoURL>
      <ServiceProvider>0</ServiceProvider>
      <RichContent>1</RichContent>
      <Blocked>N</Blocked>
      <AltLowRate>0</AltLowRate>
      <AltDecimals>0</AltDecimals>
      <AltCurrency>USD</AltCurrency>
      <HasRatesPackage>N</HasRatesPackage>
      <Emprhotur>N</Emprhotur>
      <AmhmRes>N</AmhmRes>
      <ParseUrl />
      <Provider>ZAR</Provider>
    </Property>
    <Property>
      <PropertyNumber>2750</PropertyNumber>
      <PropertyName>City Express Aguascalientes Sur</PropertyName>
      <ChainCode />
      <Address>Blvd. José María Chávez No. 1919 Col. San Pedro</Address>
      <Phone>449 149 2900</Phone>
      <Fax>449 149 2905</Fax>
      <Category>https://images.univisit.net/GLOBAL/images/Category/Star4.gif</Category>
      <CityCode>AGU</CityCode>
      <CityName>Aguascalientes</CityName>
      <StateName>AG</StateName>
      <CountryCode>MX</CountryCode>
      <ShortDescription>     City Express Aguascalientes Sur esta dirigido al viajero de negocios que busca calidad y servicios especializados a un precio justo, por lo que los beneficios de las tarifas incluye; desayuno buffet continental en cortesía, centro de negocios, gimnasio, internet alámbrico e inalámbrico, transpo...</ShortDescription>
      <ImageURL>https://crs.univisit.com/images/global/Albums/10/7934/42106_M</ImageURL>
      <Latitude>21.842762864869</Latitude>
      <Logitude>102.29071319103</Logitude>
      <LowRate>0</LowRate>
      <Decimals>0</Decimals>
      <Currency>USD</Currency>
      <LogoURL>https://images.univisit.net/GLOBAL/ImagesSystem/Logos/LogoCompany_7934</LogoURL>
      <ServiceProvider>0</ServiceProvider>
      <RichContent>1</RichContent>
      <Blocked>N</Blocked>
      <AltLowRate>0</AltLowRate>
      <AltDecimals>0</AltDecimals>
      <AltCurrency>USD</AltCurrency>
      <HasRatesPackage>N</HasRatesPackage>
      <Emprhotur>N</Emprhotur>
      <AmhmRes>N</AmhmRes>
      <ParseUrl />
      <Provider>ZAR</Provider>
    </Property>
    <Property>
      <PropertyNumber>2770</PropertyNumber>
      <PropertyName>City Express Ciudad del Carmén</PropertyName>
      <ChainCode />
      <Address>Blvd. Playa Norte Lote 1 s/n esquina Av. Juárez Col. Justo Sierra.</Address>
      <Phone>938 138 0390</Phone>
      <Fax>938 138 0390</Fax>
      <Category>https://images.univisit.net/GLOBAL/images/Category/Star4.gif</Category>
      <CityCode>AGU</CityCode>
      <CityName>Aguascalientes</CityName>
      <StateName>AG</StateName>
      <CountryCode>MX</CountryCode>
      <ShortDescription>     City Express Ciudad del Carmen esta dirigido al viajero de negocios que busca calidad y servicios especializados a un precio justo, por lo que los beneficios de las tarifas incluye; desayuno buffet continental en cortesía, centro de negocios, gimnasio, internet alámbrico e inalámbrico, transpor...</ShortDescription>
      <ImageURL>https://crs.univisit.com/images/global/Albums/10/7960/42152_M</ImageURL>
      <Latitude>18.662504379546</Latitude>
      <Logitude>91.832259893417</Logitude>
      <LowRate>0</LowRate>
      <Decimals>0</Decimals>
      <Currency>USD</Currency>
      <LogoURL>https://images.univisit.net/GLOBAL/ImagesSystem/Logos/LogoCompany_7960</LogoURL>
      <ServiceProvider>0</ServiceProvider>
      <RichContent>1</RichContent>
      <Blocked>N</Blocked>
      <AltLowRate>0</AltLowRate>
      <AltDecimals>0</AltDecimals>
      <AltCurrency>USD</AltCurrency>
      <HasRatesPackage>N</HasRatesPackage>
      <Emprhotur>N</Emprhotur>
      <AmhmRes>N</AmhmRes>
      <ParseUrl />
      <Provider>ZAR</Provider>
    </Property>
  </Properties>
  <Error>
    <ErrorCode />
    <Message />
  </Error>
</Hotel_HOI_RS>



-------------------------------------------
RQ
17/03/2017 10:41:52 a. m.
Version: 1.0.4.11
-------------------------------------------
<reqHotelComplete>
  <CompleteAvailability>
    <HotelHeader>
      <CheckinDate>20171018</CheckinDate>
      <CheckoutDate>20171019</CheckoutDate>
      <Language>ES</Language>
      <AltCurrency>MXN</AltCurrency>
      <AccessCode />
      <IdPortal />
      <ServiceProvider>0</ServiceProvider>
      <ReferenceContract />
    </HotelHeader>
    <HotelFilter>
      <Segment>P</Segment>
    </HotelFilter>
    <HotelFilter>
      <Segment>R</Segment>
    </HotelFilter>
    <HotelFilter>
      <Segment>C</Segment>
    </HotelFilter>
    <HotelFilter>
      <Segment>K</Segment>
    </HotelFilter>
    <HotelFilter>
      <Segment>O</Segment>
    </HotelFilter>
    <HotelRequests>
      <HotelRequest>
        <PropertyNumber>524</PropertyNumber>
      </HotelRequest>
      <HotelRequest>
        <PropertyNumber>523</PropertyNumber>
      </HotelRequest>
      <HotelRequest>
        <PropertyNumber>1323</PropertyNumber>
      </HotelRequest>
      <HotelRequest>
        <PropertyNumber>1486</PropertyNumber>
      </HotelRequest>
      <HotelRequest>
        <PropertyNumber>1978</PropertyNumber>
      </HotelRequest>
      <HotelRequest>
        <PropertyNumber>2743</PropertyNumber>
      </HotelRequest>
      <HotelRequest>
        <PropertyNumber>2749</PropertyNumber>
      </HotelRequest>
      <HotelRequest>
        <PropertyNumber>2750</PropertyNumber>
      </HotelRequest>
      <HotelRequest>
        <PropertyNumber>2770</PropertyNumber>
      </HotelRequest>
    </HotelRequests>
    <HotelRooms>
      <Room>
        <Adults>2</Adults>
        <Children>0</Children>
      </Room>
    </HotelRooms>
  </CompleteAvailability>
</reqHotelComplete>



-------------------------------------------
RQ
17/03/2017 10:41:57 a. m.
Version: 1.0.4.11
-------------------------------------------
<reqHotelComplete>
  <CompleteAvailability>
    <HotelHeader>
      <CheckinDate>20171018</CheckinDate>
      <CheckoutDate>20171019</CheckoutDate>
      <Language>ES</Language>
      <AltCurrency>MXN</AltCurrency>
      <AccessCode />
      <IdPortal />
      <ServiceProvider>0</ServiceProvider>
      <ReferenceContract />
    </HotelHeader>
    <HotelFilter>
      <Segment>P</Segment>
    </HotelFilter>
    <HotelFilter>
      <Segment>R</Segment>
    </HotelFilter>
    <HotelFilter>
      <Segment>C</Segment>
    </HotelFilter>
    <HotelFilter>
      <Segment>K</Segment>
    </HotelFilter>
    <HotelFilter>
      <Segment>O</Segment>
    </HotelFilter>
    <HotelRequests>
      <HotelRequest>
        <PropertyNumber>1978</PropertyNumber>
      </HotelRequest>
    </HotelRequests>
    <HotelRooms>
      <Room>
        <Adults>2</Adults>
        <Children>0</Children>
      </Room>
    </HotelRooms>
  </CompleteAvailability>
</reqHotelComplete>



-------------------------------------------
RS
17/03/2017 10:42:01 a. m.
Version: 1.0.4.11
-------------------------------------------
<Hotel_HOC_RS>
  <CompleteAvailability>
    <Property>
      <PropertyNumber>1978</PropertyNumber>
      <Currency>USD</Currency>
      <TaxIncluded>Y</TaxIncluded>
      <Tax>16.0000</Tax>
      <ServiceProvider>0</ServiceProvider>
      <CityCode>AGU</CityCode>
      <ChainCode>UV</ChainCode>
      <AltCurrency>USD</AltCurrency>
      <RoomType>
        <RoomCode>D2D</RoomCode>
        <RoomName>Habitación Doble</RoomName>
        <RoomDescription>     &lt;p&gt;&amp;quot;Room only                                                                                            &lt;/p&gt; &lt;p&gt;&amp;quot;,&amp;quot;currency&amp;quot;:&amp;quot;&lt;/p&gt; </RoomDescription>
        <RatePlan>
          <PlanCode>D2DRAC</PlanCode>
          <PlanName>Tarifa Estándar Prueba</PlanName>
          <PlanDescription>Solo Habitación</PlanDescription>
          <AdvBooking>1</AdvBooking>
          <MinDays>1</MinDays>
          <MaxDays>254</MaxDays>
          <RatesVariation>0</RatesVariation>
          <OnlyFirstDay>0</OnlyFirstDay>
          <Available>Y</Available>
          <Message />
          <DaysFree>3</DaysFree>
          <DescPromotion>5.0000</DescPromotion>
          <MaxAdults />
          <MaxChildren />
          <TotalStay>1102</TotalStay>
          <AvgRate>1102</AvgRate>
          <Segment>R</Segment>
          <GuarDep>G</GuarDep>
          <PackPrice>1160</PackPrice>
          <PackTypePrice>N</PackTypePrice>
          <TotalAvgRate>1160</TotalAvgRate>
          <TotalStayDay>1160</TotalStayDay>
          <AltTotalStay>13224.00</AltTotalStay>
          <AltAvgRate>13224.00</AltAvgRate>
          <AltPackPrice>13920.00</AltPackPrice>
          <AltTotalAvgRate>13920.00</AltTotalAvgRate>
          <AltTotalStayDay>13920.00</AltTotalStayDay>
          <AgencyPercent>0</AgencyPercent>
          <AccessCode />
          <isUvNetRate>false</isUvNetRate>
          <Currency>USD</Currency>
          <AltCurrency>MXN</AltCurrency>
          <CompanyContract />
          <ReferenceContract />
          <TypeContract />
          <Price>
            <Day>2017/10/18</Day>
            <Total>1160</Total>
            <Total2>1102</Total2>
            <TotalExt>0</TotalExt>
            <TotalDay>1160</TotalDay>
            <AltTotal>13920.00</AltTotal>
            <AltTotal2>13224.00</AltTotal2>
            <AltTotalExt>.00</AltTotalExt>
            <AltTotalDay>13920.00</AltTotalDay>
            <Available>Y</Available>
          </Price>
        </RatePlan>
        <Room>
          <Adults>2</Adults>
          <Children>0</Children>
          <ExtAdults>0</ExtAdults>
          <ExtChildren>0</ExtChildren>
        </Room>
      </RoomType>
      <RoomType>
        <RoomCode>D1K</RoomCode>
        <RoomName>Habitación con 1 Cama King</RoomName>
        <RoomDescription>     &lt;p&gt; Contamos con Habitaciones aencillas, con 1 cama king y capacidad máxima para 2 personas. Las habitaciones cuentan con aire acondicionado, TV con 26 canales, secadora de cabello. La ocupación puede ser sencilla, doble, triple y cuádruple. Los siguientes servicios son sin costo solicitándolos a recepción: llamadas locales, periódico, internet, tabla de planchado y plancha a solicitud.&lt;br /&gt;  &lt;/p&gt; </RoomDescription>
        <RatePlan>
          <PlanCode>D1KRAC</PlanCode>
          <PlanName>Tarifa Estándar Prueba</PlanName>
          <PlanDescription>Solo Habitación</PlanDescription>
          <AdvBooking>1</AdvBooking>
          <MinDays>1</MinDays>
          <MaxDays>254</MaxDays>
          <RatesVariation>0</RatesVariation>
          <OnlyFirstDay>0</OnlyFirstDay>
          <Available>Y</Available>
          <Message />
          <DaysFree>3</DaysFree>
          <DescPromotion>5.0000</DescPromotion>
          <MaxAdults />
          <MaxChildren />
          <TotalStay>1102</TotalStay>
          <AvgRate>1102</AvgRate>
          <Segment>R</Segment>
          <GuarDep>G</GuarDep>
          <PackPrice>1160</PackPrice>
          <PackTypePrice>N</PackTypePrice>
          <TotalAvgRate>1160</TotalAvgRate>
          <TotalStayDay>1160</TotalStayDay>
          <AltTotalStay>13224.00</AltTotalStay>
          <AltAvgRate>13224.00</AltAvgRate>
          <AltPackPrice>13920.00</AltPackPrice>
          <AltTotalAvgRate>13920.00</AltTotalAvgRate>
          <AltTotalStayDay>13920.00</AltTotalStayDay>
          <AgencyPercent>0</AgencyPercent>
          <AccessCode />
          <isUvNetRate>false</isUvNetRate>
          <Currency>USD</Currency>
          <AltCurrency>MXN</AltCurrency>
          <CompanyContract />
          <ReferenceContract />
          <TypeContract />
          <Price>
            <Day>2017/10/18</Day>
            <Total>1160</Total>
            <Total2>1102</Total2>
            <TotalExt>0</TotalExt>
            <TotalDay>1160</TotalDay>
            <AltTotal>13920.00</AltTotal>
            <AltTotal2>13224.00</AltTotal2>
            <AltTotalExt>.00</AltTotalExt>
            <AltTotalDay>13920.00</AltTotalDay>
            <Available>Y</Available>
          </Price>
        </RatePlan>
        <Room>
          <Adults>2</Adults>
          <Children>0</Children>
          <ExtAdults>0</ExtAdults>
          <ExtChildren>0</ExtChildren>
        </Room>
      </RoomType>
    </Property>
  </CompleteAvailability>
</Hotel_HOC_RS>



-------------------------------------------
RS
17/03/2017 10:42:05 a. m.
Version: 1.0.4.11
-------------------------------------------
<Hotel_HOC_RS>
  <CompleteAvailability>
    <Property>
      <PropertyNumber>524</PropertyNumber>
      <Currency>MXN</Currency>
      <TaxIncluded>Y</TaxIncluded>
      <Tax>16.0000</Tax>
      <ServiceProvider>0</ServiceProvider>
      <CityCode>AGU</CityCode>
      <ChainCode />
      <AltCurrency>MXN</AltCurrency>
    </Property>
    <Property>
      <PropertyNumber>523</PropertyNumber>
      <Currency>MXN</Currency>
      <TaxIncluded>Y</TaxIncluded>
      <Tax>16.0000</Tax>
      <ServiceProvider>0</ServiceProvider>
      <CityCode>AGU</CityCode>
      <ChainCode />
      <AltCurrency>MXN</AltCurrency>
    </Property>
    <Property>
      <PropertyNumber>1323</PropertyNumber>
      <Currency>MXN</Currency>
      <TaxIncluded>Y</TaxIncluded>
      <Tax>16.0000</Tax>
      <ServiceProvider>0</ServiceProvider>
      <CityCode>AGU</CityCode>
      <ChainCode>UV</ChainCode>
      <AltCurrency>MXN</AltCurrency>
    </Property>
    <Property>
      <PropertyNumber>1486</PropertyNumber>
      <Currency>MXN</Currency>
      <TaxIncluded>Y</TaxIncluded>
      <Tax>16.0000</Tax>
      <ServiceProvider>0</ServiceProvider>
      <CityCode>AGU</CityCode>
      <ChainCode>UV</ChainCode>
      <AltCurrency>MXN</AltCurrency>
    </Property>
    <Property>
      <PropertyNumber>1978</PropertyNumber>
      <Currency>USD</Currency>
      <TaxIncluded>Y</TaxIncluded>
      <Tax>16.0000</Tax>
      <ServiceProvider>0</ServiceProvider>
      <CityCode>AGU</CityCode>
      <ChainCode>UV</ChainCode>
      <AltCurrency>USD</AltCurrency>
      <RoomType>
        <RoomCode>D2D</RoomCode>
        <RoomName>Habitación Doble</RoomName>
        <RoomDescription>     &lt;p&gt;&amp;quot;Room only                                                                                            &lt;/p&gt; &lt;p&gt;&amp;quot;,&amp;quot;currency&amp;quot;:&amp;quot;&lt;/p&gt; </RoomDescription>
        <RatePlan>
          <PlanCode>D2DRAC</PlanCode>
          <PlanName>Tarifa Estándar Prueba</PlanName>
          <PlanDescription>Solo Habitación</PlanDescription>
          <AdvBooking>1</AdvBooking>
          <MinDays>1</MinDays>
          <MaxDays>254</MaxDays>
          <RatesVariation>0</RatesVariation>
          <OnlyFirstDay>0</OnlyFirstDay>
          <Available>Y</Available>
          <Message />
          <DaysFree>3</DaysFree>
          <DescPromotion>5.0000</DescPromotion>
          <MaxAdults />
          <MaxChildren />
          <TotalStay>1102</TotalStay>
          <AvgRate>1102</AvgRate>
          <Segment>R</Segment>
          <GuarDep>G</GuarDep>
          <PackPrice>1160</PackPrice>
          <PackTypePrice>N</PackTypePrice>
          <TotalAvgRate>1160</TotalAvgRate>
          <TotalStayDay>1160</TotalStayDay>
          <AltTotalStay>13224.00</AltTotalStay>
          <AltAvgRate>13224.00</AltAvgRate>
          <AltPackPrice>13920.00</AltPackPrice>
          <AltTotalAvgRate>13920.00</AltTotalAvgRate>
          <AltTotalStayDay>13920.00</AltTotalStayDay>
          <AgencyPercent>0</AgencyPercent>
          <AccessCode />
          <isUvNetRate>false</isUvNetRate>
          <Currency>USD</Currency>
          <AltCurrency>MXN</AltCurrency>
          <CompanyContract />
          <ReferenceContract />
          <TypeContract />
          <Price>
            <Day>2017/10/18</Day>
            <Total>1160</Total>
            <Total2>1102</Total2>
            <TotalExt>0</TotalExt>
            <TotalDay>1160</TotalDay>
            <AltTotal>13920.00</AltTotal>
            <AltTotal2>13224.00</AltTotal2>
            <AltTotalExt>.00</AltTotalExt>
            <AltTotalDay>13920.00</AltTotalDay>
            <Available>Y</Available>
          </Price>
        </RatePlan>
        <Room>
          <Adults>2</Adults>
          <Children>0</Children>
          <ExtAdults>0</ExtAdults>
          <ExtChildren>0</ExtChildren>
        </Room>
      </RoomType>
      <RoomType>
        <RoomCode>D1K</RoomCode>
        <RoomName>Habitación con 1 Cama King</RoomName>
        <RoomDescription>     &lt;p&gt; Contamos con Habitaciones aencillas, con 1 cama king y capacidad máxima para 2 personas. Las habitaciones cuentan con aire acondicionado, TV con 26 canales, secadora de cabello. La ocupación puede ser sencilla, doble, triple y cuádruple. Los siguientes servicios son sin costo solicitándolos a recepción: llamadas locales, periódico, internet, tabla de planchado y plancha a solicitud.&lt;br /&gt;  &lt;/p&gt; </RoomDescription>
        <RatePlan>
          <PlanCode>D1KRAC</PlanCode>
          <PlanName>Tarifa Estándar Prueba</PlanName>
          <PlanDescription>Solo Habitación</PlanDescription>
          <AdvBooking>1</AdvBooking>
          <MinDays>1</MinDays>
          <MaxDays>254</MaxDays>
          <RatesVariation>0</RatesVariation>
          <OnlyFirstDay>0</OnlyFirstDay>
          <Available>Y</Available>
          <Message />
          <DaysFree>3</DaysFree>
          <DescPromotion>5.0000</DescPromotion>
          <MaxAdults />
          <MaxChildren />
          <TotalStay>1102</TotalStay>
          <AvgRate>1102</AvgRate>
          <Segment>R</Segment>
          <GuarDep>G</GuarDep>
          <PackPrice>1160</PackPrice>
          <PackTypePrice>N</PackTypePrice>
          <TotalAvgRate>1160</TotalAvgRate>
          <TotalStayDay>1160</TotalStayDay>
          <AltTotalStay>13224.00</AltTotalStay>
          <AltAvgRate>13224.00</AltAvgRate>
          <AltPackPrice>13920.00</AltPackPrice>
          <AltTotalAvgRate>13920.00</AltTotalAvgRate>
          <AltTotalStayDay>13920.00</AltTotalStayDay>
          <AgencyPercent>0</AgencyPercent>
          <AccessCode />
          <isUvNetRate>false</isUvNetRate>
          <Currency>USD</Currency>
          <AltCurrency>MXN</AltCurrency>
          <CompanyContract />
          <ReferenceContract />
          <TypeContract />
          <Price>
            <Day>2017/10/18</Day>
            <Total>1160</Total>
            <Total2>1102</Total2>
            <TotalExt>0</TotalExt>
            <TotalDay>1160</TotalDay>
            <AltTotal>13920.00</AltTotal>
            <AltTotal2>13224.00</AltTotal2>
            <AltTotalExt>.00</AltTotalExt>
            <AltTotalDay>13920.00</AltTotalDay>
            <Available>Y</Available>
          </Price>
        </RatePlan>
        <Room>
          <Adults>2</Adults>
          <Children>0</Children>
          <ExtAdults>0</ExtAdults>
          <ExtChildren>0</ExtChildren>
        </Room>
      </RoomType>
    </Property>
    <Property>
      <PropertyNumber>2743</PropertyNumber>
      <Currency>MXN</Currency>
      <TaxIncluded>Y</TaxIncluded>
      <Tax>16.0000</Tax>
      <ServiceProvider>0</ServiceProvider>
      <CityCode>AGU</CityCode>
      <ChainCode />
      <AltCurrency>MXN</AltCurrency>
    </Property>
    <Property>
      <PropertyNumber>2749</PropertyNumber>
      <Currency>MXN</Currency>
      <TaxIncluded>Y</TaxIncluded>
      <Tax>16.0000</Tax>
      <ServiceProvider>0</ServiceProvider>
      <CityCode>AGU</CityCode>
      <ChainCode />
      <AltCurrency>MXN</AltCurrency>
    </Property>
    <Property>
      <PropertyNumber>2750</PropertyNumber>
      <Currency>MXN</Currency>
      <TaxIncluded>Y</TaxIncluded>
      <Tax>16.0000</Tax>
      <ServiceProvider>0</ServiceProvider>
      <CityCode>AGU</CityCode>
      <ChainCode />
      <AltCurrency>MXN</AltCurrency>
    </Property>
    <Property>
      <PropertyNumber>2770</PropertyNumber>
      <Currency>MXN</Currency>
      <TaxIncluded>Y</TaxIncluded>
      <Tax>16.0000</Tax>
      <ServiceProvider>0</ServiceProvider>
      <CityCode>AGU</CityCode>
      <ChainCode />
      <AltCurrency>MXN</AltCurrency>
    </Property>
  </CompleteAvailability>
</Hotel_HOC_RS>



-------------------------------------------
RQ
17/03/2017 10:52:21 a. m.
Version: 1.0.4.11
-------------------------------------------
<reqHotelComplete>
  <CompleteAvailability>
    <HotelHeader>
      <CheckinDate>20171018</CheckinDate>
      <CheckoutDate>20171019</CheckoutDate>
      <Language>ES</Language>
      <AltCurrency>MXN</AltCurrency>
      <AccessCode />
      <IdPortal />
      <ServiceProvider>0</ServiceProvider>
      <ReferenceContract />
    </HotelHeader>
    <HotelFilter>
      <Segment>P</Segment>
    </HotelFilter>
    <HotelFilter>
      <Segment>R</Segment>
    </HotelFilter>
    <HotelFilter>
      <Segment>C</Segment>
    </HotelFilter>
    <HotelFilter>
      <Segment>K</Segment>
    </HotelFilter>
    <HotelFilter>
      <Segment>O</Segment>
    </HotelFilter>
    <HotelRequests>
      <HotelRequest>
        <PropertyNumber>1978</PropertyNumber>
      </HotelRequest>
    </HotelRequests>
    <HotelRooms>
      <Room>
        <Adults>2</Adults>
        <Children>0</Children>
      </Room>
    </HotelRooms>
  </CompleteAvailability>
</reqHotelComplete>



-------------------------------------------
RS
17/03/2017 10:52:26 a. m.
Version: 1.0.4.11
-------------------------------------------
<Hotel_HOC_RS>
  <CompleteAvailability>
    <Property>
      <PropertyNumber>1978</PropertyNumber>
      <Currency>USD</Currency>
      <TaxIncluded>Y</TaxIncluded>
      <Tax>16.0000</Tax>
      <ServiceProvider>0</ServiceProvider>
      <CityCode>AGU</CityCode>
      <ChainCode>UV</ChainCode>
      <AltCurrency>USD</AltCurrency>
      <RoomType>
        <RoomCode>D2D</RoomCode>
        <RoomName>Habitación Doble</RoomName>
        <RoomDescription>     &lt;p&gt;&amp;quot;Room only                                                                                            &lt;/p&gt; &lt;p&gt;&amp;quot;,&amp;quot;currency&amp;quot;:&amp;quot;&lt;/p&gt; </RoomDescription>
        <RatePlan>
          <PlanCode>D2DPELI</PlanCode>
          <PlanName>Pago en línea</PlanName>
          <PlanDescription>Pago en línea</PlanDescription>
          <AdvBooking>1</AdvBooking>
          <MinDays>1</MinDays>
          <MaxDays>254</MaxDays>
          <RatesVariation>0</RatesVariation>
          <OnlyFirstDay>0</OnlyFirstDay>
          <Available>Y</Available>
          <Message />
          <DaysFree>0</DaysFree>
          <DescPromotion>0.0000</DescPromotion>
          <MaxAdults />
          <MaxChildren />
          <TotalStay>1.16</TotalStay>
          <AvgRate>1.16</AvgRate>
          <Segment>R</Segment>
          <GuarDep>G</GuarDep>
          <PackPrice>1.16</PackPrice>
          <PackTypePrice>N</PackTypePrice>
          <TotalAvgRate>1.16</TotalAvgRate>
          <TotalStayDay>1.16</TotalStayDay>
          <AltTotalStay>13.92</AltTotalStay>
          <AltAvgRate>13.92</AltAvgRate>
          <AltPackPrice>13.92</AltPackPrice>
          <AltTotalAvgRate>13.92</AltTotalAvgRate>
          <AltTotalStayDay>13.92</AltTotalStayDay>
          <AgencyPercent>0</AgencyPercent>
          <AccessCode />
          <isUvNetRate>true</isUvNetRate>
          <Currency>USD</Currency>
          <AltCurrency>MXN</AltCurrency>
          <CompanyContract />
          <ReferenceContract />
          <TypeContract />
          <Price>
            <Day>2017/10/18</Day>
            <Total>1.16</Total>
            <Total2>1.16</Total2>
            <TotalExt>0</TotalExt>
            <TotalDay>1.16</TotalDay>
            <AltTotal>13.92</AltTotal>
            <AltTotal2>13.92</AltTotal2>
            <AltTotalExt>.00</AltTotalExt>
            <AltTotalDay>13.92</AltTotalDay>
            <Available>Y</Available>
          </Price>
        </RatePlan>
        <RatePlan>
          <PlanCode>D2DRAC</PlanCode>
          <PlanName>Tarifa Estándar Prueba</PlanName>
          <PlanDescription>Solo Habitación</PlanDescription>
          <AdvBooking>1</AdvBooking>
          <MinDays>1</MinDays>
          <MaxDays>254</MaxDays>
          <RatesVariation>0</RatesVariation>
          <OnlyFirstDay>0</OnlyFirstDay>
          <Available>Y</Available>
          <Message />
          <DaysFree>3</DaysFree>
          <DescPromotion>5.0000</DescPromotion>
          <MaxAdults />
          <MaxChildren />
          <TotalStay>1102</TotalStay>
          <AvgRate>1102</AvgRate>
          <Segment>R</Segment>
          <GuarDep>G</GuarDep>
          <PackPrice>1160</PackPrice>
          <PackTypePrice>N</PackTypePrice>
          <TotalAvgRate>1160</TotalAvgRate>
          <TotalStayDay>1160</TotalStayDay>
          <AltTotalStay>13224.00</AltTotalStay>
          <AltAvgRate>13224.00</AltAvgRate>
          <AltPackPrice>13920.00</AltPackPrice>
          <AltTotalAvgRate>13920.00</AltTotalAvgRate>
          <AltTotalStayDay>13920.00</AltTotalStayDay>
          <AgencyPercent>0</AgencyPercent>
          <AccessCode />
          <isUvNetRate>false</isUvNetRate>
          <Currency>USD</Currency>
          <AltCurrency>MXN</AltCurrency>
          <CompanyContract />
          <ReferenceContract />
          <TypeContract />
          <Price>
            <Day>2017/10/18</Day>
            <Total>1160</Total>
            <Total2>1102</Total2>
            <TotalExt>0</TotalExt>
            <TotalDay>1160</TotalDay>
            <AltTotal>13920.00</AltTotal>
            <AltTotal2>13224.00</AltTotal2>
            <AltTotalExt>.00</AltTotalExt>
            <AltTotalDay>13920.00</AltTotalDay>
            <Available>Y</Available>
          </Price>
        </RatePlan>
        <Room>
          <Adults>2</Adults>
          <Children>0</Children>
          <ExtAdults>0</ExtAdults>
          <ExtChildren>0</ExtChildren>
        </Room>
      </RoomType>
      <RoomType>
        <RoomCode>D1K</RoomCode>
        <RoomName>Habitación con 1 Cama King</RoomName>
        <RoomDescription>     &lt;p&gt; Contamos con Habitaciones aencillas, con 1 cama king y capacidad máxima para 2 personas. Las habitaciones cuentan con aire acondicionado, TV con 26 canales, secadora de cabello. La ocupación puede ser sencilla, doble, triple y cuádruple. Los siguientes servicios son sin costo solicitándolos a recepción: llamadas locales, periódico, internet, tabla de planchado y plancha a solicitud.&lt;br /&gt;  &lt;/p&gt; </RoomDescription>
        <RatePlan>
          <PlanCode>D1KPELI</PlanCode>
          <PlanName>Pago en línea</PlanName>
          <PlanDescription>Pago en línea</PlanDescription>
          <AdvBooking>1</AdvBooking>
          <MinDays>1</MinDays>
          <MaxDays>254</MaxDays>
          <RatesVariation>0</RatesVariation>
          <OnlyFirstDay>0</OnlyFirstDay>
          <Available>Y</Available>
          <Message />
          <DaysFree>0</DaysFree>
          <DescPromotion>0.0000</DescPromotion>
          <MaxAdults />
          <MaxChildren />
          <TotalStay>1.16</TotalStay>
          <AvgRate>1.16</AvgRate>
          <Segment>R</Segment>
          <GuarDep>G</GuarDep>
          <PackPrice>1.16</PackPrice>
          <PackTypePrice>N</PackTypePrice>
          <TotalAvgRate>1.16</TotalAvgRate>
          <TotalStayDay>1.16</TotalStayDay>
          <AltTotalStay>13.92</AltTotalStay>
          <AltAvgRate>13.92</AltAvgRate>
          <AltPackPrice>13.92</AltPackPrice>
          <AltTotalAvgRate>13.92</AltTotalAvgRate>
          <AltTotalStayDay>13.92</AltTotalStayDay>
          <AgencyPercent>0</AgencyPercent>
          <AccessCode />
          <isUvNetRate>true</isUvNetRate>
          <Currency>USD</Currency>
          <AltCurrency>MXN</AltCurrency>
          <CompanyContract />
          <ReferenceContract />
          <TypeContract />
          <Price>
            <Day>2017/10/18</Day>
            <Total>1.16</Total>
            <Total2>1.16</Total2>
            <TotalExt>0</TotalExt>
            <TotalDay>1.16</TotalDay>
            <AltTotal>13.92</AltTotal>
            <AltTotal2>13.92</AltTotal2>
            <AltTotalExt>.00</AltTotalExt>
            <AltTotalDay>13.92</AltTotalDay>
            <Available>Y</Available>
          </Price>
        </RatePlan>
        <RatePlan>
          <PlanCode>D1KRAC</PlanCode>
          <PlanName>Tarifa Estándar Prueba</PlanName>
          <PlanDescription>Solo Habitación</PlanDescription>
          <AdvBooking>1</AdvBooking>
          <MinDays>1</MinDays>
          <MaxDays>254</MaxDays>
          <RatesVariation>0</RatesVariation>
          <OnlyFirstDay>0</OnlyFirstDay>
          <Available>Y</Available>
          <Message />
          <DaysFree>3</DaysFree>
          <DescPromotion>5.0000</DescPromotion>
          <MaxAdults />
          <MaxChildren />
          <TotalStay>1102</TotalStay>
          <AvgRate>1102</AvgRate>
          <Segment>R</Segment>
          <GuarDep>G</GuarDep>
          <PackPrice>1160</PackPrice>
          <PackTypePrice>N</PackTypePrice>
          <TotalAvgRate>1160</TotalAvgRate>
          <TotalStayDay>1160</TotalStayDay>
          <AltTotalStay>13224.00</AltTotalStay>
          <AltAvgRate>13224.00</AltAvgRate>
          <AltPackPrice>13920.00</AltPackPrice>
          <AltTotalAvgRate>13920.00</AltTotalAvgRate>
          <AltTotalStayDay>13920.00</AltTotalStayDay>
          <AgencyPercent>0</AgencyPercent>
          <AccessCode />
          <isUvNetRate>false</isUvNetRate>
          <Currency>USD</Currency>
          <AltCurrency>MXN</AltCurrency>
          <CompanyContract />
          <ReferenceContract />
          <TypeContract />
          <Price>
            <Day>2017/10/18</Day>
            <Total>1160</Total>
            <Total2>1102</Total2>
            <TotalExt>0</TotalExt>
            <TotalDay>1160</TotalDay>
            <AltTotal>13920.00</AltTotal>
            <AltTotal2>13224.00</AltTotal2>
            <AltTotalExt>.00</AltTotalExt>
            <AltTotalDay>13920.00</AltTotalDay>
            <Available>Y</Available>
          </Price>
        </RatePlan>
        <Room>
          <Adults>2</Adults>
          <Children>0</Children>
          <ExtAdults>0</ExtAdults>
          <ExtChildren>0</ExtChildren>
        </Room>
      </RoomType>
    </Property>
  </CompleteAvailability>
</Hotel_HOC_RS>



-------------------------------------------
RQ
17/03/2017 10:52:41 a. m.
Version: 1.0.4.11
-------------------------------------------
<reqHotelRules>
  <HotelRules>
    <HotelHeader>
      <CheckinDate>20171018</CheckinDate>
      <CheckoutDate>20171019</CheckoutDate>
      <Language>ES</Language>
      <RateCode>D2DPELI</RateCode>
      <PropertyNumber>1978</PropertyNumber>
      <Source>CCT</Source>
      <Nights>1</Nights>
      <ChainCode>UV</ChainCode>
      <AltCurrency>MXN</AltCurrency>
      <AccessCode />
      <ServiceProvider>0</ServiceProvider>
      <ReferenceContract />
    </HotelHeader>
    <HotelRooms>
      <Room>
        <Adults>2</Adults>
        <Children>0</Children>
      </Room>
    </HotelRooms>
  </HotelRules>
</reqHotelRules>



-------------------------------------------
RS
17/03/2017 10:52:42 a. m.
Version: 1.0.4.11
-------------------------------------------
<Hotel_HOR_RS>
  <HotelRules>
    <Property>
      <PropertyNumber>1978</PropertyNumber>
      <CancelationPoliticies>En temporada regular cxl hasta 24 horas antes de la fecha de llegada del huésped al hotel para evitar cargos.
En temporada de Feria de San Marcos 8 días antes de la fecha de llegada.</CancelationPoliticies>
      <GuarantyPoliticies>Tarjeta de crédito o una noche de depósito se requiere para garantizar la reservación.</GuarantyPoliticies>
      <CreditCardPoliticies>Se aceptan AX, CA y VI.</CreditCardPoliticies>
      <CancelPrior>24-H</CancelPrior>
      <CreditCardAccept>DC AX JC CB VI CA AB DS IK</CreditCardAccept>
      <HotelName>Hotel Misión Aguascalientes Sur </HotelName>
      <CompanyId>6972</CompanyId>
      <MaxAgeOfChildren>12</MaxAgeOfChildren>
      <Checkin>1500</Checkin>
      <Checkout>1300</Checkout>
      <Address>Blvd. José María Chávez # 2100. Ciudad Industrial</Address>
      <PostalCode>20329</PostalCode>
      <City>Aguascalientes</City>
      <State>Aguascalientes</State>
      <Country>MEXICO</Country>
      <Money>USD</Money>
      <TotalRate>1</TotalRate>
      <TotalExtras>0</TotalExtras>
      <PlusTax>false</PlusTax>
      <Taxes>0.16</Taxes>
      <ExtraCharges xml:space="preserve"> </ExtraCharges>
      <AltMoney>MXN</AltMoney>
      <AltTotalRate>12.00</AltTotalRate>
      <AltTaxes>1.92</AltTaxes>
      <AltTotalExtras>.00</AltTotalExtras>
      <ImageLogo>https://crs.univisit.com/global/ImagesSystem/Logos/LogoCompany_6972</ImageLogo>
      <AllowBankDeposit>Y</AllowBankDeposit>
      <DepositAmount>1.16</DepositAmount>
      <AltDepositAmount>13.92</AltDepositAmount>
      <AgencyPercent>0</AgencyPercent>
      <DepositInfo>     &lt;p&gt;&amp;nbsp;&lt;/p&gt; </DepositInfo>
      <AllowSpecificPayment>Y</AllowSpecificPayment>
      <AllowBankDepositCCT>Y</AllowBankDepositCCT>
      <Prepayment>0.58</Prepayment>
    </Property>
    <Rooms>
      <Room>
        <RateCode>D2DPELI</RateCode>
        <RollAwayAdult>0</RollAwayAdult>
        <RollAwayChild>0</RollAwayChild>
        <RollAwayCrib>0</RollAwayCrib>
        <PriceRollAwayAdult>0.0000</PriceRollAwayAdult>
        <PriceRollAwayChild>0.0000</PriceRollAwayChild>
        <PriceRollAwayCrib>0.0000</PriceRollAwayCrib>
        <GuarDep>G</GuarDep>
        <OnRequest>N</OnRequest>
        <MaxDays>254</MaxDays>
        <MinDays>1</MinDays>
        <AdvanceBooking>1</AdvanceBooking>
        <RatePlanName>Pago en línea</RatePlanName>
        <RatePlanDescription>Pago en línea</RatePlanDescription>
        <NameRoom>Habitación Doble</NameRoom>
        <Segment>R</Segment>
        <RoomCode>D2D</RoomCode>
        <Availability>Y</Availability>
        <AccessCode />
        <CoporateDiscount />
        <NameRoomType>Habitación Estándar 2 Camas Matrimoniales</NameRoomType>
        <MaxAdults>4</MaxAdults>
        <MaxChildren>2</MaxChildren>
        <ExtraPeople>0</ExtraPeople>
        <RoomDescription>     &lt;p&gt;&amp;quot;Room only                                                                                            &lt;/p&gt; &lt;p&gt;&amp;quot;,&amp;quot;currency&amp;quot;:&amp;quot;&lt;/p&gt; </RoomDescription>
        <DaysFree>0</DaysFree>
        <DescPromotion>0.0000</DescPromotion>
        <isUvNetRate>true</isUvNetRate>
        <RTRooms>
          <RTRoom>
            <Adults>2</Adults>
            <Children>0</Children>
            <Teens>0</Teens>
            <ExtraAdults>0</ExtraAdults>
            <ExtraChildren>0</ExtraChildren>
            <ExtraTeens>0</ExtraTeens>
          </RTRoom>
        </RTRooms>
      </Room>
    </Rooms>
    <Rates>
      <Rate>
        <SeassonId>1</SeassonId>
        <RateCode>D2DPELI</RateCode>
        <Date>2017/10/18</Date>
        <NumberRooms>5</NumberRooms>
        <Exc>N</Exc>
      </Rate>
    </Rates>
    <Prices>
      <Price>
        <RateCode>D2DPELI</RateCode>
        <Adults>2</Adults>
        <Children>0</Children>
        <Teens>0</Teens>
        <RateAdult>1</RateAdult>
        <RateChild>0</RateChild>
        <RateAdultExc>0</RateAdultExc>
        <RateChildExc>0</RateChildExc>
        <SeassonId>1</SeassonId>
        <ExtraRateAdult>0</ExtraRateAdult>
        <ExtraRateChild>0</ExtraRateChild>
        <ExtraRateTeen>0</ExtraRateTeen>
        <AltRateAdult>12</AltRateAdult>
        <AltRateChild>0</AltRateChild>
        <AltRateAdultExc>0</AltRateAdultExc>
        <AltRateChildExc>0</AltRateChildExc>
        <AltExtraRateAdult>0</AltExtraRateAdult>
        <AltExtraRateChild>0</AltExtraRateChild>
        <AltExtraRateTeen>0</AltExtraRateTeen>
        <DescChildrenWhenApply>true</DescChildrenWhenApply>
      </Price>
    </Prices>
  </HotelRules>
</Hotel_HOR_RS>



-------------------------------------------
RQ
17/03/2017 10:52:49 a. m.
Version: 1.0.4.11
-------------------------------------------
<reqHotelRules>
  <HotelRules>
    <HotelHeader>
      <CheckinDate>20171018</CheckinDate>
      <CheckoutDate>20171019</CheckoutDate>
      <Language>ES</Language>
      <RateCode>D2DPELI</RateCode>
      <PropertyNumber>1978</PropertyNumber>
      <Source>CCT</Source>
      <Nights>1</Nights>
      <ChainCode>UV</ChainCode>
      <AltCurrency>MXN</AltCurrency>
      <AccessCode />
      <ServiceProvider>0</ServiceProvider>
      <ReferenceContract />
    </HotelHeader>
    <HotelRooms>
      <Room>
        <Adults>2</Adults>
        <Children>0</Children>
      </Room>
    </HotelRooms>
  </HotelRules>
</reqHotelRules>



-------------------------------------------
RS
17/03/2017 10:52:50 a. m.
Version: 1.0.4.11
-------------------------------------------
<Hotel_HOR_RS>
  <HotelRules>
    <Property>
      <PropertyNumber>1978</PropertyNumber>
      <CancelationPoliticies>En temporada regular cxl hasta 24 horas antes de la fecha de llegada del huésped al hotel para evitar cargos.
En temporada de Feria de San Marcos 8 días antes de la fecha de llegada.</CancelationPoliticies>
      <GuarantyPoliticies>Tarjeta de crédito o una noche de depósito se requiere para garantizar la reservación.</GuarantyPoliticies>
      <CreditCardPoliticies>Se aceptan AX, CA y VI.</CreditCardPoliticies>
      <CancelPrior>24-H</CancelPrior>
      <CreditCardAccept>DC AX JC CB VI CA AB DS IK</CreditCardAccept>
      <HotelName>Hotel Misión Aguascalientes Sur </HotelName>
      <CompanyId>6972</CompanyId>
      <MaxAgeOfChildren>12</MaxAgeOfChildren>
      <Checkin>1500</Checkin>
      <Checkout>1300</Checkout>
      <Address>Blvd. José María Chávez # 2100. Ciudad Industrial</Address>
      <PostalCode>20329</PostalCode>
      <City>Aguascalientes</City>
      <State>Aguascalientes</State>
      <Country>MEXICO</Country>
      <Money>USD</Money>
      <TotalRate>1</TotalRate>
      <TotalExtras>0</TotalExtras>
      <PlusTax>false</PlusTax>
      <Taxes>0.16</Taxes>
      <ExtraCharges xml:space="preserve"> </ExtraCharges>
      <AltMoney>MXN</AltMoney>
      <AltTotalRate>12.00</AltTotalRate>
      <AltTaxes>1.92</AltTaxes>
      <AltTotalExtras>.00</AltTotalExtras>
      <ImageLogo>https://crs.univisit.com/global/ImagesSystem/Logos/LogoCompany_6972</ImageLogo>
      <AllowBankDeposit>Y</AllowBankDeposit>
      <DepositAmount>1.16</DepositAmount>
      <AltDepositAmount>13.92</AltDepositAmount>
      <AgencyPercent>0</AgencyPercent>
      <DepositInfo>     &lt;p&gt;&amp;nbsp;&lt;/p&gt; </DepositInfo>
      <AllowSpecificPayment>Y</AllowSpecificPayment>
      <AllowBankDepositCCT>Y</AllowBankDepositCCT>
      <Prepayment>0.58</Prepayment>
    </Property>
    <Rooms>
      <Room>
        <RateCode>D2DPELI</RateCode>
        <RollAwayAdult>0</RollAwayAdult>
        <RollAwayChild>0</RollAwayChild>
        <RollAwayCrib>0</RollAwayCrib>
        <PriceRollAwayAdult>0.0000</PriceRollAwayAdult>
        <PriceRollAwayChild>0.0000</PriceRollAwayChild>
        <PriceRollAwayCrib>0.0000</PriceRollAwayCrib>
        <GuarDep>G</GuarDep>
        <OnRequest>N</OnRequest>
        <MaxDays>254</MaxDays>
        <MinDays>1</MinDays>
        <AdvanceBooking>1</AdvanceBooking>
        <RatePlanName>Pago en línea</RatePlanName>
        <RatePlanDescription>Pago en línea</RatePlanDescription>
        <NameRoom>Habitación Doble</NameRoom>
        <Segment>R</Segment>
        <RoomCode>D2D</RoomCode>
        <Availability>Y</Availability>
        <AccessCode />
        <CoporateDiscount />
        <NameRoomType>Habitación Estándar 2 Camas Matrimoniales</NameRoomType>
        <MaxAdults>4</MaxAdults>
        <MaxChildren>2</MaxChildren>
        <ExtraPeople>0</ExtraPeople>
        <RoomDescription>     &lt;p&gt;&amp;quot;Room only                                                                                            &lt;/p&gt; &lt;p&gt;&amp;quot;,&amp;quot;currency&amp;quot;:&amp;quot;&lt;/p&gt; </RoomDescription>
        <DaysFree>0</DaysFree>
        <DescPromotion>0.0000</DescPromotion>
        <isUvNetRate>true</isUvNetRate>
        <RTRooms>
          <RTRoom>
            <Adults>2</Adults>
            <Children>0</Children>
            <Teens>0</Teens>
            <ExtraAdults>0</ExtraAdults>
            <ExtraChildren>0</ExtraChildren>
            <ExtraTeens>0</ExtraTeens>
          </RTRoom>
        </RTRooms>
      </Room>
    </Rooms>
    <Rates>
      <Rate>
        <SeassonId>1</SeassonId>
        <RateCode>D2DPELI</RateCode>
        <Date>2017/10/18</Date>
        <NumberRooms>5</NumberRooms>
        <Exc>N</Exc>
      </Rate>
    </Rates>
    <Prices>
      <Price>
        <RateCode>D2DPELI</RateCode>
        <Adults>2</Adults>
        <Children>0</Children>
        <Teens>0</Teens>
        <RateAdult>1</RateAdult>
        <RateChild>0</RateChild>
        <RateAdultExc>0</RateAdultExc>
        <RateChildExc>0</RateChildExc>
        <SeassonId>1</SeassonId>
        <ExtraRateAdult>0</ExtraRateAdult>
        <ExtraRateChild>0</ExtraRateChild>
        <ExtraRateTeen>0</ExtraRateTeen>
        <AltRateAdult>12</AltRateAdult>
        <AltRateChild>0</AltRateChild>
        <AltRateAdultExc>0</AltRateAdultExc>
        <AltRateChildExc>0</AltRateChildExc>
        <AltExtraRateAdult>0</AltExtraRateAdult>
        <AltExtraRateChild>0</AltExtraRateChild>
        <AltExtraRateTeen>0</AltExtraRateTeen>
        <DescChildrenWhenApply>true</DescChildrenWhenApply>
      </Price>
    </Prices>
  </HotelRules>
</Hotel_HOR_RS>



-------------------------------------------
RQ
17/03/2017 10:53:14 a. m.
Version: 1.0.4.11
-------------------------------------------
<RqGetPortals><HotelId>1978</HotelId></RqGetPortals>



-------------------------------------------
RS
17/03/2017 10:53:15 a. m.
Version: 1.0.4.11
-------------------------------------------
<NewDataSet>
  <Table>
    <IdPortal>5</IdPortal>
    <Nombre>Hotels Mision - En</Nombre>
    <Descripcion>booking mision en</Descripcion>
    <PaginaWeb>http:</PaginaWeb>
    <idCorporativo>1</idCorporativo>
    <activo>true</activo>
  </Table>
  <Table>
    <IdPortal>85</IdPortal>
    <Nombre>Hotels Mision Movil - En</Nombre>
    <Descripcion>Movil Booking Engine Mision - En</Descripcion>
    <PaginaWeb>http://www.hotelesmision.com/mbookingengine/</PaginaWeb>
    <idCorporativo>1</idCorporativo>
    <activo>true</activo>
  </Table>
  <Table>
    <IdPortal>86</IdPortal>
    <Nombre>Hoteles Mision Movil - Es</Nombre>
    <Descripcion>Movil Booking Engine Mision - Es</Descripcion>
    <PaginaWeb>http://www.hotelesmision.com.mx/mbookingengine/</PaginaWeb>
    <idCorporativo>1</idCorporativo>
    <activo>true</activo>
  </Table>
  <Table>
    <IdPortal>49</IdPortal>
    <Nombre>Hotels Mision - Es</Nombre>
    <Descripcion>Booking Hoteles Mision</Descripcion>
    <PaginaWeb>http://www.visithotelesdemexico.com/mision</PaginaWeb>
    <idCorporativo>1</idCorporativo>
    <activo>true</activo>
  </Table>
  <Table>
    <IdPortal>102</IdPortal>
    <Nombre>Hotels Mision - Callcenter</Nombre>
    <Descripcion>Hoteles Mision CallCenter</Descripcion>
    <PaginaWeb>http:</PaginaWeb>
    <idCorporativo>1</idCorporativo>
    <activo>true</activo>
  </Table>
  <Table>
    <IdPortal>310</IdPortal>
    <Nombre>App Iphone Mision  - Esp - Movil</Nombre>
    <Descripcion>App Iphone Mision  - Esp - Movil</Descripcion>
    <PaginaWeb />
    <idCorporativo>1</idCorporativo>
    <activo>true</activo>
  </Table>
  <Table>
    <IdPortal>311</IdPortal>
    <Nombre>App Iphone Mision - Ingles - Movil</Nombre>
    <Descripcion>App Iphone Mision - Ingles - Movil</Descripcion>
    <PaginaWeb />
    <idCorporativo>1</idCorporativo>
    <activo>true</activo>
  </Table>
</NewDataSet>